# num of test, generation, neighborhood size
4 30 10
# image width height
640 480
# image entropy
2.656596866087945
# avg. time
13.21407687664032s
# best fitness in each run
0.14399233842767734 0.12481824039063912 0.15538783980609427 0.133029490451902 
# avg. std. deviation of best fitness
0.13930697726907817 0.011509529597179225
# best solution
[0, 49, 141, 56, 137, 233, 110, 194, 255]
# enhanced image entropy
0.8386921098246432
original entropy, quality : 2.656596866087945, 2.060403742511635
he enhanced entropy, quality : 2.408619523905944, 2.0507412055221366
# history
run 1
[0, 73, 113, 41, 148, 217, 109, 202, 255], 0.12287175659558765
[0, 73, 113, 41, 148, 217, 109, 202, 255], 0.12287175659558765
[0, 62, 141, 35, 148, 221, 106, 202, 255], 0.1301333933808926
[0, 41, 119, 38, 148, 221, 109, 180, 255], 0.13047048552685478
[0, 41, 119, 36, 148, 222, 114, 178, 255], 0.13279391430385853
[0, 41, 119, 36, 148, 222, 114, 178, 255], 0.1271854983986716
[0, 32, 120, 33, 144, 222, 110, 202, 255], 0.13286681460853345
[0, 32, 120, 33, 144, 222, 110, 202, 255], 0.13164268598850026
[0, 32, 120, 33, 144, 222, 110, 202, 255], 0.13129945612318333
[0, 32, 120, 33, 144, 222, 110, 202, 255], 0.12574674143630196
[0, 32, 120, 33, 144, 222, 110, 202, 255], 0.12497575912250693
[0, 32, 120, 33, 144, 222, 110, 202, 255], 0.12501600528532772
[0, 32, 120, 33, 144, 222, 110, 202, 255], 0.12666370242467107
[0, 32, 120, 33, 144, 222, 110, 202, 255], 0.1183180766703753
[0, 32, 120, 33, 144, 222, 110, 202, 255], 0.12421477183142803
[0, 32, 120, 33, 144, 222, 110, 202, 255], 0.1227084830217131
[0, 32, 120, 33, 144, 222, 110, 202, 255], 0.11531929292360125
[0, 32, 120, 33, 144, 222, 110, 202, 255], 0.12367557403810979
[0, 74, 150, 70, 116, 225, 116, 166, 255], 0.1337139147630049
[0, 74, 150, 70, 116, 225, 116, 166, 255], 0.13212202543515156
[0, 74, 150, 70, 116, 225, 116, 166, 255], 0.13155206935829336
[0, 71, 151, 31, 145, 225, 111, 212, 255], 0.13789965871434126
[0, 51, 149, 74, 112, 227, 117, 187, 255], 0.13793803019722542
[0, 51, 149, 74, 112, 227, 117, 187, 255], 0.1330133507436067
[0, 51, 149, 74, 112, 227, 117, 187, 255], 0.13514414805576858
[0, 65, 113, 68, 112, 229, 124, 168, 255], 0.14011430584170154
[0, 65, 113, 70, 112, 234, 139, 177, 255], 0.14399233842767734
[0, 65, 113, 70, 112, 234, 139, 177, 255], 0.14099345183285816
[0, 65, 113, 70, 112, 234, 139, 177, 255], 0.1393603799817332
[0, 65, 113, 70, 112, 234, 139, 177, 255], 0.13755245580453976
[0, 65, 113, 70, 112, 234, 139, 177, 255], 0.13739171851312504
[0, 65, 113, 70, 112, 234, 139, 177, 255], 0.14399233842767734
run 2
[0, 44, 122, 56, 107, 184, 148, 192, 255], 0.0640349552059024
[0, 81, 120, 51, 127, 213, 137, 168, 255], 0.11133097386285758
[0, 81, 120, 51, 127, 213, 137, 168, 255], 0.11050888370364298
[0, 86, 139, 54, 127, 213, 135, 168, 255], 0.11510981682842476
[0, 86, 139, 54, 127, 213, 135, 168, 255], 0.10929026803117028
[0, 86, 139, 54, 127, 213, 135, 168, 255], 0.11230565581256267
[0, 86, 139, 54, 127, 213, 135, 168, 255], 0.11239089734068299
[0, 86, 139, 54, 127, 213, 135, 168, 255], 0.10316842257037415
[0, 86, 139, 54, 127, 213, 135, 168, 255], 0.11426877660260956
[0, 86, 139, 54, 127, 213, 135, 168, 255], 0.11413728137401598
[0, 28, 101, 51, 125, 216, 119, 210, 255], 0.11958942987295913
[0, 28, 101, 51, 125, 216, 119, 210, 255], 0.11045695129238489
[0, 28, 101, 51, 125, 216, 119, 210, 255], 0.11723988651471084
[0, 28, 101, 51, 125, 216, 119, 210, 255], 0.11801202758709295
[0, 28, 101, 51, 125, 216, 119, 210, 255], 0.11685352867516384
[0, 28, 101, 51, 125, 216, 119, 210, 255], 0.11728404272915538
[0, 28, 101, 51, 125, 216, 119, 210, 255], 0.11777152282631093
[0, 28, 101, 51, 125, 216, 119, 210, 255], 0.11770808502539794
[0, 28, 101, 51, 125, 216, 119, 210, 255], 0.11776389357443708
[0, 28, 101, 51, 125, 216, 119, 210, 255], 0.1123698469438788
[0, 28, 101, 51, 125, 216, 119, 210, 255], 0.10949937393987504
[0, 28, 101, 51, 125, 216, 119, 210, 255], 0.11052634367661561
[0, 28, 101, 51, 125, 216, 119, 210, 255], 0.11008813406371255
[0, 56, 115, 58, 116, 215, 109, 187, 255], 0.12031319837988645
[0, 56, 115, 58, 116, 215, 109, 187, 255], 0.12006289879342316
[0, 56, 115, 58, 116, 215, 109, 187, 255], 0.11232247276211856
[0, 56, 115, 58, 116, 215, 109, 187, 255], 0.10780717919174333
[0, 56, 115, 58, 116, 215, 109, 187, 255], 0.1093180600510364
[0, 69, 145, 62, 113, 220, 150, 206, 255], 0.12481824039063912
[0, 69, 145, 62, 113, 220, 150, 206, 255], 0.10569408405553223
[0, 69, 145, 62, 113, 220, 150, 206, 255], 0.10471138274306371
[0, 69, 145, 62, 113, 220, 150, 206, 255], 0.12481824039063912
run 3
[0, 54, 148, 78, 117, 208, 150, 208, 255], 0.10136478726537655
[0, 67, 139, 62, 138, 217, 131, 185, 255], 0.12198126506818228
[0, 53, 148, 56, 138, 218, 131, 188, 255], 0.12423560526546325
[0, 86, 137, 56, 138, 222, 131, 186, 255], 0.13186168261277106
[0, 62, 152, 61, 131, 223, 113, 202, 255], 0.1336735357993373
[0, 62, 156, 58, 133, 228, 146, 195, 255], 0.14134937215079102
[0, 48, 133, 58, 133, 228, 117, 171, 255], 0.14251210471799838
[0, 48, 133, 58, 133, 228, 117, 171, 255], 0.14249903777902365
[0, 48, 133, 58, 133, 228, 117, 171, 255], 0.13785904446983255
[0, 58, 136, 61, 137, 233, 156, 209, 255], 0.14394894662976673
[0, 58, 136, 61, 137, 233, 156, 209, 255], 0.14139980146870004
[0, 73, 154, 62, 137, 233, 116, 194, 255], 0.15377854472266858
[0, 49, 141, 56, 137, 233, 110, 194, 255], 0.15538783980609427
[0, 49, 141, 56, 137, 233, 110, 194, 255], 0.14834397370168229
[0, 49, 141, 56, 137, 233, 110, 194, 255], 0.1505359333110943
[0, 49, 141, 56, 137, 233, 110, 194, 255], 0.13980104002927948
[0, 49, 141, 56, 137, 233, 110, 194, 255], 0.14527653818316283
[0, 49, 141, 56, 137, 233, 110, 194, 255], 0.14472055971710832
[0, 49, 141, 56, 137, 233, 110, 194, 255], 0.15266695457726914
[0, 49, 141, 56, 137, 233, 110, 194, 255], 0.1387837617245227
[0, 49, 141, 56, 137, 233, 110, 194, 255], 0.13672254581057142
[0, 49, 141, 56, 137, 233, 110, 194, 255], 0.13673801120178528
[0, 49, 141, 56, 137, 233, 110, 194, 255], 0.13913120745620822
[0, 49, 141, 56, 137, 233, 110, 194, 255], 0.1356148251387902
[0, 49, 141, 56, 137, 233, 110, 194, 255], 0.14638889467471997
[0, 49, 141, 56, 137, 233, 110, 194, 255], 0.1467002956370391
[0, 49, 141, 56, 137, 233, 110, 194, 255], 0.14457526474438567
[0, 49, 141, 56, 137, 233, 110, 194, 255], 0.14474300373122556
[0, 49, 141, 56, 137, 233, 110, 194, 255], 0.1476550440132025
[0, 49, 141, 56, 137, 233, 110, 194, 255], 0.1507009589483931
[0, 49, 141, 56, 137, 233, 110, 194, 255], 0.1477427915256732
[0, 49, 141, 56, 137, 233, 110, 194, 255], 0.15538783980609427
run 4
[0, 75, 117, 76, 118, 217, 127, 203, 255], 0.11757892939326496
[0, 75, 117, 76, 118, 217, 127, 203, 255], 0.11757892939326496
[0, 75, 117, 76, 118, 217, 124, 204, 255], 0.11849927200612732
[0, 75, 117, 76, 118, 217, 124, 204, 255], 0.11816043057628477
[0, 44, 116, 76, 117, 217, 110, 194, 255], 0.11967606562394406
[0, 44, 116, 76, 117, 217, 110, 194, 255], 0.11909289830791508
[0, 40, 121, 76, 117, 218, 123, 188, 255], 0.12073962285393904
[0, 40, 121, 76, 117, 218, 123, 188, 255], 0.11556063310553562
[0, 40, 121, 76, 117, 218, 123, 188, 255], 0.11721047104954635
[0, 40, 122, 72, 121, 219, 113, 175, 255], 0.12353902555170071
[0, 40, 122, 72, 121, 219, 113, 175, 255], 0.12122074614552784
[0, 40, 122, 72, 121, 219, 113, 175, 255], 0.12195206802095784
[0, 40, 122, 72, 121, 219, 113, 175, 255], 0.11366652693448998
[0, 40, 122, 72, 121, 219, 113, 175, 255], 0.11366078195521907
[0, 40, 122, 72, 121, 219, 113, 175, 255], 0.11207251007085647
[0, 40, 122, 72, 121, 219, 113, 175, 255], 0.11220161008447443
[0, 40, 122, 72, 121, 219, 113, 175, 255], 0.11898599591175618
[0, 40, 122, 72, 121, 219, 113, 175, 255], 0.11871499390924081
[0, 40, 122, 72, 121, 219, 113, 175, 255], 0.11631806759105132
[0, 40, 122, 72, 121, 219, 113, 175, 255], 0.11706211997256993
[0, 77, 127, 82, 131, 221, 108, 182, 255], 0.12487341969789348
[0, 77, 127, 82, 131, 221, 108, 182, 255], 0.12104538794102493
[0, 77, 127, 82, 131, 221, 108, 182, 255], 0.11466973338359206
[0, 77, 127, 82, 131, 221, 108, 182, 255], 0.1194143095354642
[0, 77, 127, 82, 131, 221, 108, 182, 255], 0.12175626708547928
[0, 77, 138, 81, 131, 225, 114, 158, 255], 0.13040690408342107
[0, 73, 131, 81, 131, 225, 114, 184, 255], 0.133029490451902
[0, 73, 131, 81, 131, 225, 114, 184, 255], 0.13264672833842417
[0, 73, 131, 81, 131, 225, 114, 184, 255], 0.13119806271368067
[0, 73, 131, 81, 131, 225, 114, 184, 255], 0.12451891454037661
[0, 73, 131, 81, 131, 225, 114, 184, 255], 0.12089656622179858
[0, 73, 131, 81, 131, 225, 114, 184, 255], 0.133029490451902
