# num of test, generation, neighborhood size
4 30 10
# image width height
253 199
# image entropy
4.70473184323804
# avg. time
3.3898923993110657s
# best fitness in each run
1.2750845613227304 1.2191885213060978 1.1455829237390942 0.8908041868842594 
# avg. std. deviation of best fitness
1.1326650483130454 0.14699759935224505
# best solution
[0, 41, 108, 87, 123, 229, 146, 216, 255]
# enhanced image entropy
1.7005117099661295
original entropy, quality : 4.70473184323804, 4.638721894753594
he enhanced entropy, quality : 4.542477381858238, 4.798899206301973
# history
run 1
[0, 57, 126, 73, 132, 171, 106, 195, 255], 0.1680046107310695
[0, 67, 127, 85, 133, 211, 140, 183, 255], 0.7264278965151613
[0, 40, 148, 67, 119, 214, 147, 191, 255], 0.8047279810643313
[0, 40, 148, 67, 119, 214, 147, 191, 255], 0.7283726539296502
[0, 40, 148, 67, 119, 214, 147, 191, 255], 0.756039773420842
[0, 40, 148, 67, 119, 214, 147, 191, 255], 0.7574391997523081
[0, 40, 148, 67, 119, 214, 147, 191, 255], 0.7576072666743601
[0, 40, 148, 67, 119, 214, 147, 191, 255], 0.7370151983412243
[0, 40, 148, 67, 119, 214, 147, 191, 255], 0.7397567137963428
[0, 40, 148, 67, 119, 214, 147, 191, 255], 0.7230997690889979
[0, 66, 131, 68, 128, 214, 153, 208, 255], 0.8069574345042819
[0, 66, 131, 68, 128, 214, 140, 209, 255], 0.8139301514036039
[0, 60, 128, 85, 104, 215, 121, 209, 255], 0.82705065889591
[0, 68, 140, 85, 103, 215, 121, 209, 255], 0.8275848571428238
[0, 64, 128, 67, 125, 216, 151, 208, 255], 0.8594964908248943
[0, 68, 128, 67, 125, 222, 126, 181, 255], 1.0244263273882033
[0, 68, 128, 67, 125, 222, 126, 181, 255], 1.0232604529010894
[0, 48, 100, 67, 123, 224, 153, 208, 255], 1.091160159893661
[0, 58, 137, 67, 126, 224, 153, 208, 255], 1.1086008148320077
[0, 58, 137, 68, 126, 224, 153, 212, 255], 1.1094546342689677
[0, 58, 137, 68, 126, 224, 153, 212, 255], 1.0899945305420975
[0, 58, 137, 68, 126, 224, 153, 212, 255], 1.0891593370829804
[0, 54, 141, 68, 129, 224, 149, 222, 255], 1.1209813042442236
[0, 47, 106, 69, 129, 227, 150, 186, 255], 1.1844891027775843
[0, 62, 132, 69, 129, 227, 114, 198, 255], 1.2018303232223044
[0, 62, 132, 69, 129, 227, 114, 198, 255], 1.2004580781866807
[0, 62, 132, 69, 129, 227, 114, 198, 255], 1.1636068675338367
[0, 62, 132, 69, 129, 227, 114, 198, 255], 1.107185014339394
[0, 62, 132, 69, 129, 227, 114, 198, 255], 1.1460657088092732
[0, 41, 108, 87, 123, 227, 140, 222, 255], 1.2155434577698279
[0, 41, 108, 87, 123, 229, 146, 216, 255], 1.2750845613227304
[0, 41, 108, 87, 123, 229, 146, 216, 255], 1.2750845613227304
run 2
[0, 70, 110, 60, 138, 217, 148, 177, 255], 0.8743463730665072
[0, 70, 110, 60, 138, 217, 148, 177, 255], 0.8743463730665072
[0, 54, 122, 59, 139, 220, 145, 178, 255], 0.9680326281459748
[0, 54, 122, 59, 139, 220, 145, 178, 255], 0.8549814616745797
[0, 54, 122, 59, 139, 220, 145, 178, 255], 0.8923409295249658
[0, 54, 122, 59, 139, 220, 145, 178, 255], 0.8910317651796719
[0, 54, 122, 59, 139, 220, 145, 178, 255], 0.8912645743665704
[0, 54, 122, 59, 139, 220, 145, 178, 255], 0.8928805922535289
[0, 54, 122, 59, 139, 220, 145, 178, 255], 0.8995217394310896
[0, 62, 121, 73, 138, 222, 140, 212, 255], 1.0485195689531965
[0, 62, 121, 73, 138, 222, 140, 212, 255], 1.0476056774503013
[0, 62, 121, 73, 138, 222, 140, 212, 255], 1.0454895040887056
[0, 62, 121, 73, 138, 222, 140, 212, 255], 1.0308074526620101
[0, 62, 121, 73, 138, 222, 140, 212, 255], 1.0438016444557798
[0, 62, 162, 74, 140, 226, 156, 182, 255], 1.173221389297328
[0, 84, 131, 77, 141, 226, 129, 207, 255], 1.1853011180846211
[0, 84, 133, 74, 141, 227, 114, 212, 255], 1.2191885213060978
[0, 84, 133, 74, 141, 227, 114, 212, 255], 1.2092999124379977
[0, 84, 133, 74, 141, 227, 114, 212, 255], 1.0690518788451873
[0, 84, 133, 74, 141, 227, 114, 212, 255], 1.0726529895250188
[0, 84, 133, 74, 141, 227, 114, 212, 255], 0.915603608422457
[0, 84, 133, 74, 141, 227, 114, 212, 255], 0.9086626391568937
[0, 84, 133, 74, 141, 227, 114, 212, 255], 0.9279400888386714
[0, 84, 133, 74, 141, 227, 114, 212, 255], 0.913138981459302
[0, 84, 133, 74, 141, 227, 114, 212, 255], 0.911884355580522
[0, 84, 133, 74, 141, 227, 114, 212, 255], 0.8558809526239881
[0, 84, 133, 74, 141, 227, 114, 212, 255], 0.8557557589466608
[0, 84, 133, 74, 141, 227, 114, 212, 255], 0.8670086947077957
[0, 84, 133, 74, 141, 227, 114, 212, 255], 0.8624258295197191
[0, 84, 133, 74, 141, 227, 114, 212, 255], 0.8399803519879142
[0, 84, 133, 74, 141, 227, 114, 212, 255], 0.8908030604558327
[0, 84, 133, 74, 141, 227, 114, 212, 255], 1.2191885213060978
run 3
[0, 58, 147, 53, 123, 182, 139, 172, 255], 0.24025464582719558
[0, 42, 119, 43, 128, 215, 120, 186, 255], 0.830044190264347
[0, 48, 141, 44, 128, 217, 120, 182, 255], 0.879663685298938
[0, 48, 141, 44, 128, 217, 120, 182, 255], 0.8776835627552684
[0, 48, 141, 44, 128, 217, 120, 182, 255], 0.7390289854897573
[0, 48, 141, 44, 128, 217, 120, 182, 255], 0.7361353433137705
[0, 48, 141, 44, 128, 217, 120, 182, 255], 0.6973172053944977
[0, 48, 141, 44, 128, 217, 120, 182, 255], 0.6973233395379042
[0, 48, 141, 44, 128, 217, 120, 182, 255], 0.7293582548769475
[0, 48, 141, 44, 128, 217, 120, 182, 255], 0.726297962642522
[0, 48, 141, 44, 128, 217, 120, 182, 255], 0.7224382522393613
[0, 48, 141, 44, 128, 217, 120, 182, 255], 0.7443606061665107
[0, 48, 141, 44, 128, 217, 120, 182, 255], 0.7376318893416334
[0, 48, 141, 44, 128, 217, 120, 182, 255], 0.8150233926684757
[0, 56, 150, 90, 124, 218, 142, 192, 255], 0.9164456441595076
[0, 51, 145, 90, 130, 218, 147, 192, 255], 0.9220271500097252
[0, 56, 148, 90, 133, 219, 121, 214, 255], 0.9535284052435065
[0, 56, 148, 90, 133, 219, 121, 214, 255], 0.8146863549196957
[0, 56, 148, 90, 133, 219, 121, 214, 255], 0.8943113893495741
[0, 56, 148, 90, 133, 219, 121, 214, 255], 0.9142933275016175
[0, 56, 148, 90, 133, 219, 121, 214, 255], 0.9139768357389143
[0, 56, 148, 90, 133, 219, 121, 214, 255], 0.9047974463098156
[0, 56, 148, 90, 133, 219, 121, 214, 255], 0.9033506059498496
[0, 56, 148, 90, 133, 219, 121, 214, 255], 0.8392524178985592
[0, 56, 148, 90, 133, 219, 121, 214, 255], 0.8415368942583767
[0, 56, 148, 90, 133, 219, 121, 214, 255], 0.8465908670990404
[0, 56, 148, 90, 133, 219, 121, 214, 255], 0.9195971615095305
[0, 56, 148, 90, 133, 219, 121, 214, 255], 0.9507608611285546
[0, 56, 148, 90, 133, 219, 121, 214, 255], 0.9522022327342129
[0, 100, 154, 95, 120, 225, 118, 229, 255], 1.1455829237390942
[0, 100, 154, 95, 120, 225, 118, 229, 255], 1.1454725143169875
[0, 100, 154, 95, 120, 225, 118, 229, 255], 1.1455829237390942
run 4
[0, 58, 133, 62, 134, 171, 126, 190, 255], 0.15511626338093723
[0, 88, 114, 63, 111, 209, 128, 212, 255], 0.6812199697340733
[0, 88, 114, 63, 111, 209, 128, 212, 255], 0.6133580621774841
[0, 91, 119, 67, 113, 210, 119, 207, 255], 0.7000702110686209
[0, 91, 119, 67, 113, 210, 119, 207, 255], 0.6911804226402958
[0, 91, 119, 67, 113, 210, 119, 207, 255], 0.6744902237838841
[0, 91, 119, 67, 113, 210, 119, 207, 255], 0.6737508095521226
[0, 91, 119, 67, 113, 210, 119, 207, 255], 0.6772867465041277
[0, 91, 119, 67, 113, 210, 119, 207, 255], 0.6991260114643132
[0, 91, 119, 67, 113, 210, 119, 207, 255], 0.5907434256967373
[0, 91, 119, 67, 113, 210, 119, 207, 255], 0.5910195900266313
[0, 91, 119, 67, 113, 210, 119, 207, 255], 0.5382317988217362
[0, 91, 119, 67, 113, 210, 119, 207, 255], 0.5418838238316749
[0, 91, 119, 67, 113, 210, 119, 207, 255], 0.5415535709860011
[0, 91, 119, 67, 113, 210, 119, 207, 255], 0.638717033348716
[0, 91, 119, 67, 113, 210, 119, 207, 255], 0.6783736555137706
[0, 91, 119, 67, 113, 210, 119, 207, 255], 0.6820834073983012
[0, 91, 119, 67, 113, 210, 119, 207, 255], 0.6165240773138224
[0, 91, 119, 67, 113, 210, 119, 207, 255], 0.6186523241292777
[0, 91, 119, 67, 113, 210, 119, 207, 255], 0.622478637541005
[0, 91, 119, 67, 113, 210, 119, 207, 255], 0.6234189166563159
[0, 91, 119, 67, 113, 210, 119, 207, 255], 0.6926022515266642
[0, 54, 113, 82, 140, 213, 142, 213, 255], 0.7866328096294989
[0, 54, 113, 82, 140, 213, 142, 213, 255], 0.7719388368013116
[0, 55, 133, 79, 138, 213, 133, 199, 255], 0.7868658375364944
[0, 55, 133, 79, 138, 213, 133, 199, 255], 0.7329694686828516
[0, 55, 133, 79, 138, 213, 133, 199, 255], 0.7321988589280979
[0, 74, 124, 114, 145, 217, 108, 190, 255], 0.8818975873734997
[0, 98, 120, 114, 143, 217, 128, 191, 255], 0.8908041868842594
[0, 98, 120, 114, 143, 217, 128, 191, 255], 0.8904759105076631
[0, 98, 120, 114, 143, 217, 128, 191, 255], 0.7861923129579887
[0, 98, 120, 114, 143, 217, 128, 191, 255], 0.8908041868842594
