# num of test, generation, neighborhood size
4 30 10
# image width height
729 480
# image entropy
7.819674270728978
# avg. time
115.727488219738s
# best fitness in each run
6.982086625842083 7.548682704237584 7.729926130519021 7.100212364753422 
# avg. std. deviation of best fitness
7.340226956338028 0.30870323357999563
# best solution
[0, 43, 128, 16, 151, 252, 117, 218, 255]
# enhanced image entropy
6.86178011009089
original entropy, quality : 7.819674270728978, 9.174113167889857
he enhanced entropy, quality : 7.579920338949525, 8.948632288430028
# history
run 1
[0, 50, 113, 66, 144, 188, 108, 178, 255], 2.2104700139436946
[0, 82, 136, 53, 137, 213, 124, 205, 255], 3.269919494786329
[0, 82, 136, 53, 137, 213, 124, 205, 255], 3.269919494786329
[0, 47, 138, 52, 137, 213, 127, 209, 255], 3.3028954355789524
[0, 47, 143, 53, 137, 218, 153, 214, 255], 3.4678143092139
[0, 86, 138, 53, 133, 217, 116, 211, 255], 3.469078717722144
[0, 86, 136, 53, 140, 218, 119, 205, 255], 3.5228712223573737
[0, 47, 148, 52, 137, 222, 149, 212, 255], 3.7416291554947794
[0, 42, 140, 57, 136, 224, 109, 215, 255], 3.915041534225794
[0, 67, 148, 50, 131, 224, 113, 217, 255], 3.9541296158829877
[0, 42, 143, 57, 142, 227, 119, 203, 255], 4.0608465972487835
[0, 45, 148, 57, 142, 228, 109, 215, 255], 4.210785603033775
[0, 85, 139, 53, 150, 232, 119, 205, 255], 4.465566365354408
[0, 85, 139, 53, 150, 232, 119, 205, 255], 4.465566365354408
[0, 43, 143, 55, 137, 233, 115, 198, 255], 4.584570934791325
[0, 45, 143, 57, 138, 237, 108, 215, 255], 5.046791930750453
[0, 78, 135, 53, 150, 239, 106, 215, 255], 5.386931410328556
[0, 75, 133, 53, 150, 239, 113, 213, 255], 5.391366249005858
[0, 45, 142, 66, 133, 243, 108, 216, 255], 5.7747255141038805
[0, 45, 142, 66, 133, 243, 108, 216, 255], 5.7747255141038805
[0, 38, 146, 51, 154, 243, 104, 215, 255], 6.103104224062421
[0, 44, 136, 55, 138, 244, 111, 222, 255], 6.152837412181743
[0, 46, 142, 48, 157, 247, 98, 215, 255], 6.55006777744022
[0, 41, 145, 53, 147, 249, 108, 223, 255], 6.608019032602225
[0, 46, 143, 50, 147, 249, 112, 223, 255], 6.61097258972791
[0, 41, 154, 44, 152, 249, 117, 209, 255], 6.686440553908731
[0, 41, 154, 44, 152, 249, 117, 209, 255], 6.686440553908731
[0, 42, 147, 38, 158, 247, 100, 215, 255], 6.733603416051745
[0, 44, 148, 39, 151, 254, 124, 216, 255], 6.918029344200606
[0, 44, 148, 39, 151, 254, 124, 216, 255], 6.918029344200606
[0, 38, 159, 37, 152, 252, 101, 221, 255], 6.982086625842083
[0, 38, 159, 37, 152, 252, 101, 221, 255], 6.982086625842083
run 2
[0, 57, 122, 87, 142, 198, 137, 173, 255], 1.9345754839794316
[0, 51, 114, 44, 122, 216, 107, 193, 255], 3.63760345838427
[0, 51, 114, 44, 122, 216, 107, 193, 255], 3.63760345838427
[0, 53, 114, 39, 122, 216, 106, 198, 255], 3.743020574849122
[0, 53, 114, 39, 122, 216, 106, 198, 255], 3.743020574849122
[0, 53, 108, 44, 123, 220, 108, 198, 255], 3.865339021786856
[0, 53, 108, 44, 123, 220, 108, 198, 255], 3.865339021786856
[0, 43, 114, 41, 118, 226, 105, 192, 255], 4.275617635577668
[0, 51, 110, 38, 119, 226, 110, 196, 255], 4.350538523845159
[0, 53, 108, 38, 119, 228, 110, 196, 255], 4.485872048797059
[0, 53, 108, 38, 119, 228, 110, 196, 255], 4.485872048797059
[0, 53, 112, 41, 118, 230, 105, 196, 255], 4.568061992345524
[0, 55, 110, 48, 129, 233, 108, 200, 255], 4.711872998878025
[0, 61, 105, 37, 120, 233, 109, 196, 255], 4.91083257373119
[0, 48, 112, 38, 119, 235, 115, 198, 255], 5.067528942949749
[0, 53, 105, 49, 128, 238, 115, 198, 255], 5.252735798062929
[0, 57, 110, 47, 115, 240, 111, 192, 255], 5.6233882185215505
[0, 50, 120, 40, 125, 240, 110, 201, 255], 5.7928981410886715
[0, 51, 109, 34, 122, 245, 112, 194, 255], 6.573693884539148
[0, 51, 109, 32, 122, 245, 114, 198, 255], 6.6382877409071295
[0, 51, 109, 32, 122, 245, 114, 198, 255], 6.6382877409071295
[0, 61, 108, 33, 126, 251, 115, 192, 255], 6.913956529086396
[0, 53, 107, 34, 130, 251, 113, 192, 255], 6.945147373476182
[0, 53, 107, 34, 130, 251, 113, 192, 255], 6.945147373476182
[0, 50, 104, 34, 130, 251, 109, 192, 255], 6.962523920926868
[0, 53, 113, 29, 130, 249, 113, 197, 255], 7.049527178017131
[0, 50, 109, 27, 125, 250, 115, 191, 255], 7.114040203001148
[0, 47, 108, 27, 128, 251, 109, 191, 255], 7.198425107888249
[0, 37, 111, 19, 113, 249, 111, 189, 255], 7.390580555321748
[0, 34, 106, 19, 113, 252, 111, 193, 255], 7.504643602008474
[0, 36, 114, 19, 113, 252, 109, 208, 255], 7.548682704237584
[0, 36, 114, 19, 113, 252, 109, 208, 255], 7.548682704237584
run 3
[0, 56, 121, 83, 107, 207, 107, 216, 255], 2.492739208868482
[0, 54, 118, 58, 140, 216, 121, 208, 255], 3.411368258857048
[0, 54, 118, 58, 140, 216, 121, 208, 255], 3.411368258857048
[0, 52, 147, 44, 148, 216, 110, 212, 255], 3.593340899161331
[0, 52, 147, 44, 148, 216, 110, 212, 255], 3.593340899161331
[0, 52, 147, 44, 148, 216, 110, 212, 255], 3.593340899161331
[0, 53, 124, 59, 131, 224, 103, 217, 255], 3.8980551041279647
[0, 53, 124, 59, 131, 224, 103, 217, 255], 3.8980551041279647
[0, 53, 124, 59, 131, 226, 103, 214, 255], 4.023679679119883
[0, 53, 124, 59, 131, 226, 103, 214, 255], 4.023679679119883
[0, 62, 150, 53, 131, 228, 122, 210, 255], 4.154673037821014
[0, 62, 150, 53, 131, 231, 112, 179, 255], 4.344640425821716
[0, 74, 127, 44, 150, 231, 119, 216, 255], 4.593378530064985
[0, 74, 127, 44, 150, 231, 119, 216, 255], 4.593378530064985
[0, 51, 127, 41, 150, 234, 110, 224, 255], 4.951066913479391
[0, 51, 130, 69, 129, 238, 112, 220, 255], 5.040929826583582
[0, 52, 117, 62, 130, 239, 112, 224, 255], 5.278913225725669
[0, 54, 149, 51, 131, 239, 107, 215, 255], 5.407596131935478
[0, 77, 125, 48, 154, 242, 107, 212, 255], 5.964340817580906
[0, 51, 129, 32, 151, 241, 109, 224, 255], 6.234463336905432
[0, 51, 129, 32, 151, 241, 109, 224, 255], 6.234463336905432
[0, 51, 129, 32, 151, 241, 109, 224, 255], 6.234463336905432
[0, 56, 133, 23, 151, 242, 120, 217, 255], 6.64802702864602
[0, 80, 125, 40, 147, 252, 105, 209, 255], 6.820697420953449
[0, 52, 124, 41, 150, 251, 115, 214, 255], 6.870538905944949
[0, 52, 124, 41, 150, 253, 104, 231, 255], 6.967443611137177
[0, 48, 124, 20, 151, 247, 122, 216, 255], 7.348517201770305
[0, 48, 127, 18, 151, 247, 122, 213, 255], 7.392593158629478
[0, 48, 127, 18, 151, 247, 122, 213, 255], 7.392593158629478
[0, 52, 121, 18, 151, 247, 120, 216, 255], 7.423211573055118
[0, 43, 128, 16, 151, 252, 117, 218, 255], 7.729926130519021
[0, 43, 128, 16, 151, 252, 117, 218, 255], 7.729926130519021
run 4
[0, 72, 105, 73, 116, 173, 114, 193, 255], 1.8682136368284692
[0, 67, 117, 47, 149, 214, 151, 180, 255], 3.128303682453612
[0, 72, 111, 47, 150, 217, 114, 194, 255], 3.6366556279246955
[0, 79, 119, 47, 152, 221, 114, 194, 255], 3.824713372100969
[0, 79, 119, 47, 152, 221, 114, 194, 255], 3.824713372100969
[0, 79, 119, 47, 152, 221, 114, 194, 255], 3.824713372100969
[0, 72, 116, 46, 154, 221, 114, 189, 255], 3.851523264318053
[0, 67, 114, 45, 154, 221, 110, 194, 255], 3.88207430881012
[0, 72, 114, 46, 149, 225, 111, 189, 255], 4.120330275473837
[0, 76, 119, 42, 150, 228, 114, 194, 255], 4.361575846360579
[0, 67, 104, 50, 145, 232, 114, 221, 255], 4.584236856191308
[0, 67, 104, 50, 145, 232, 114, 221, 255], 4.584236856191308
[0, 67, 104, 50, 145, 232, 114, 221, 255], 4.584236856191308
[0, 72, 114, 52, 153, 238, 115, 189, 255], 5.252169887341648
[0, 67, 113, 51, 154, 238, 115, 189, 255], 5.281252185606808
[0, 62, 111, 50, 147, 240, 119, 182, 255], 5.592293396928323
[0, 67, 112, 51, 154, 243, 122, 182, 255], 5.982751014150601
[0, 67, 112, 53, 154, 243, 124, 209, 255], 5.992840722434141
[0, 68, 122, 52, 154, 245, 115, 189, 255], 6.229350902472503
[0, 63, 105, 66, 130, 252, 110, 220, 255], 6.362935511232218
[0, 76, 117, 47, 154, 246, 115, 196, 255], 6.399245387613542
[0, 63, 112, 52, 149, 250, 120, 221, 255], 6.645088558064508
[0, 63, 112, 52, 149, 250, 113, 224, 255], 6.68396078431629
[0, 63, 106, 57, 152, 255, 99, 229, 255], 6.702005514385487
[0, 63, 113, 49, 149, 250, 99, 229, 255], 6.715536322087668
[0, 63, 113, 49, 149, 250, 99, 229, 255], 6.715536322087668
[0, 59, 123, 42, 150, 253, 118, 230, 255], 6.952154021321623
[0, 59, 123, 42, 150, 253, 118, 230, 255], 6.952154021321623
[0, 61, 111, 40, 155, 253, 110, 239, 255], 7.065724795104513
[0, 61, 111, 40, 155, 253, 110, 239, 255], 7.065724795104513
[0, 71, 107, 38, 148, 254, 113, 239, 255], 7.100212364753422
[0, 71, 107, 38, 148, 254, 113, 239, 255], 7.100212364753422
