# num of test, generation, neighborhood size
4 30 10
# image width height
720 960
# image entropy
6.953708172980524
# avg. time
231.79995095729828s
# best fitness in each run
4.947669258823583 4.781335277367789 4.697667757218474 5.236418663167417 
# avg. std. deviation of best fitness
4.915772739144316 0.20583634933489375
# best solution
[0, 28, 82, 13, 90, 222, 103, 233, 255]
# enhanced image entropy
5.861699451721522
original entropy, quality : 6.953708172980524, 8.312790251207593
he enhanced entropy, quality : 6.717357940129492, 8.225081748773318
# history
run 1
[0, 78, 147, 76, 104, 181, 108, 199, 255], 0.5210700924200825
[0, 56, 110, 43, 123, 187, 119, 205, 255], 2.2219905808395133
[0, 56, 110, 43, 123, 187, 119, 205, 255], 2.2219905808395133
[0, 50, 122, 40, 138, 189, 143, 218, 255], 2.49987495998167
[0, 50, 118, 37, 143, 189, 143, 217, 255], 2.791240045021946
[0, 86, 105, 37, 103, 190, 147, 208, 255], 2.8584811237087537
[0, 41, 117, 36, 139, 187, 111, 197, 255], 2.96973287513412
[0, 70, 155, 33, 143, 188, 120, 201, 255], 3.0578971730016793
[0, 50, 122, 31, 143, 187, 116, 209, 255], 3.333459300113141
[0, 50, 118, 31, 128, 187, 120, 206, 255], 3.4524944501071513
[0, 50, 118, 31, 128, 187, 120, 206, 255], 3.4524944501071513
[0, 53, 126, 28, 115, 196, 111, 193, 255], 3.7259982752488456
[0, 40, 116, 25, 134, 183, 115, 198, 255], 3.8366901247499574
[0, 53, 115, 24, 133, 182, 131, 224, 255], 3.9314366577930935
[0, 56, 111, 21, 128, 189, 120, 211, 255], 4.017038776872546
[0, 50, 122, 19, 133, 189, 116, 205, 255], 4.086735504055796
[0, 71, 121, 15, 127, 191, 118, 194, 255], 4.183477613984162
[0, 39, 116, 15, 127, 191, 118, 188, 255], 4.347945481972371
[0, 33, 116, 15, 127, 189, 120, 213, 255], 4.424166435152991
[0, 33, 116, 15, 127, 189, 120, 213, 255], 4.424166435152991
[0, 44, 122, 17, 100, 205, 119, 183, 255], 4.469441997575522
[0, 44, 109, 16, 98, 197, 124, 202, 255], 4.491848160037402
[0, 26, 116, 13, 98, 197, 106, 194, 255], 4.69029130348023
[0, 33, 116, 11, 97, 203, 136, 210, 255], 4.7001240376916105
[0, 39, 116, 6, 95, 205, 126, 201, 255], 4.7566028314221365
[0, 22, 116, 10, 100, 209, 141, 211, 255], 4.7937511072353
[0, 18, 116, 10, 100, 207, 123, 216, 255], 4.852369323485232
[0, 18, 116, 10, 100, 207, 123, 216, 255], 4.852369323485232
[0, 18, 116, 10, 100, 207, 123, 216, 255], 4.852369323485232
[0, 25, 111, 7, 95, 209, 121, 212, 255], 4.895007441182191
[0, 18, 116, 8, 93, 213, 121, 215, 255], 4.947669258823583
[0, 18, 116, 8, 93, 213, 121, 215, 255], 4.947669258823583
run 2
[0, 80, 110, 64, 147, 187, 122, 187, 255], 0.783059048651442
[0, 87, 105, 40, 112, 200, 119, 207, 255], 2.545822596391474
[0, 57, 140, 37, 142, 198, 123, 196, 255], 2.782681119821597
[0, 57, 140, 37, 142, 198, 123, 196, 255], 2.782681119821597
[0, 57, 140, 37, 108, 187, 120, 194, 255], 2.8879066417877475
[0, 58, 124, 37, 104, 200, 115, 207, 255], 2.9383729237544194
[0, 81, 149, 33, 142, 199, 112, 199, 255], 3.0770933368103113
[0, 41, 111, 33, 142, 199, 112, 198, 255], 3.208443340127157
[0, 49, 138, 33, 139, 207, 111, 198, 255], 3.25401281792255
[0, 49, 138, 26, 137, 192, 124, 196, 255], 3.683556096979992
[0, 45, 137, 26, 137, 192, 123, 195, 255], 3.7040167480703894
[0, 49, 138, 23, 139, 192, 124, 193, 255], 3.8499021583936215
[0, 42, 108, 23, 138, 190, 105, 206, 255], 3.964991844457045
[0, 42, 108, 23, 138, 190, 105, 206, 255], 3.964991844457045
[0, 40, 108, 21, 137, 192, 111, 193, 255], 4.075016849549554
[0, 43, 108, 18, 131, 195, 125, 188, 255], 4.205965034310583
[0, 35, 108, 17, 135, 188, 111, 190, 255], 4.296574692345188
[0, 35, 108, 17, 135, 188, 111, 190, 255], 4.296574692345188
[0, 36, 104, 16, 136, 192, 121, 193, 255], 4.316097693147896
[0, 35, 108, 11, 146, 189, 111, 193, 255], 4.407983799469918
[0, 34, 104, 13, 125, 186, 115, 189, 255], 4.488992720109698
[0, 34, 104, 13, 125, 186, 115, 189, 255], 4.488992720109698
[0, 29, 99, 12, 126, 182, 108, 197, 255], 4.573306713377611
[0, 27, 97, 8, 139, 195, 108, 197, 255], 4.637515506509776
[0, 27, 100, 3, 139, 197, 115, 184, 255], 4.647083343169226
[0, 27, 96, 3, 139, 202, 112, 184, 255], 4.6999778186525925
[0, 27, 96, 3, 139, 202, 112, 184, 255], 4.6999778186525925
[0, 27, 96, 3, 139, 202, 112, 184, 255], 4.6999778186525925
[0, 19, 100, 3, 134, 202, 112, 184, 255], 4.765438700766099
[0, 20, 98, 4, 134, 202, 112, 184, 255], 4.781335277367789
[0, 20, 98, 4, 134, 202, 112, 184, 255], 4.781335277367789
[0, 20, 98, 4, 134, 202, 112, 184, 255], 4.781335277367789
run 3
[0, 82, 137, 56, 122, 179, 147, 191, 255], 1.1396396491301934
[0, 72, 138, 40, 109, 186, 108, 183, 255], 2.538435338611384
[0, 72, 138, 40, 109, 186, 108, 183, 255], 2.538435338611384
[0, 41, 144, 39, 144, 202, 106, 196, 255], 2.6427224740779587
[0, 63, 135, 33, 147, 197, 151, 191, 255], 3.0616002472548867
[0, 63, 135, 33, 147, 197, 151, 191, 255], 3.0616002472548867
[0, 52, 100, 29, 148, 196, 120, 182, 255], 3.478519094590305
[0, 52, 100, 29, 148, 196, 120, 182, 255], 3.478519094590305
[0, 48, 148, 25, 147, 201, 132, 170, 255], 3.7120493189037154
[0, 71, 144, 22, 154, 199, 152, 191, 255], 3.7745208540362265
[0, 63, 129, 22, 154, 199, 130, 171, 255], 3.8150748841420805
[0, 63, 127, 18, 153, 199, 137, 171, 255], 3.97394015499807
[0, 59, 126, 15, 153, 200, 133, 171, 255], 4.095188550651906
[0, 59, 126, 15, 153, 200, 133, 171, 255], 4.095188550651906
[0, 74, 145, 12, 143, 200, 133, 178, 255], 4.15316608618481
[0, 42, 148, 14, 152, 209, 139, 167, 255], 4.2087888563221165
[0, 41, 150, 10, 143, 206, 118, 165, 255], 4.347493980844216
[0, 41, 150, 10, 143, 206, 118, 165, 255], 4.347493980844216
[0, 41, 141, 5, 146, 210, 139, 167, 255], 4.402713063176816
[0, 41, 141, 5, 146, 210, 139, 167, 255], 4.402713063176816
[0, 41, 141, 5, 146, 210, 139, 167, 255], 4.402713063176816
[0, 43, 136, 7, 144, 208, 105, 150, 255], 4.4141046084048465
[0, 42, 150, 5, 143, 213, 133, 171, 255], 4.425851062528641
[0, 36, 137, 5, 147, 214, 134, 163, 255], 4.484986110325328
[0, 36, 137, 5, 147, 214, 134, 163, 255], 4.484986110325328
[0, 27, 141, 5, 137, 204, 112, 169, 255], 4.546859396479873
[0, 27, 141, 5, 137, 204, 112, 169, 255], 4.546859396479873
[0, 31, 137, 3, 144, 219, 123, 171, 255], 4.593703660711313
[0, 31, 137, 3, 144, 219, 123, 171, 255], 4.593703660711313
[0, 27, 147, 0, 144, 221, 102, 147, 255], 4.628003027189332
[0, 22, 137, 0, 143, 221, 102, 149, 255], 4.697667757218474
[0, 22, 137, 0, 143, 221, 102, 149, 255], 4.697667757218474
run 4
[0, 75, 104, 42, 138, 190, 128, 170, 255], 2.243733183790162
[0, 79, 149, 41, 123, 177, 114, 194, 255], 2.373611440535952
[0, 62, 121, 39, 138, 190, 107, 212, 255], 2.591742984606099
[0, 82, 149, 37, 123, 178, 138, 210, 255], 2.8040674868979916
[0, 76, 147, 34, 123, 182, 128, 175, 255], 3.1055682206608797
[0, 57, 97, 32, 119, 177, 137, 186, 255], 3.3472173935950202
[0, 71, 97, 26, 121, 182, 154, 171, 255], 3.724390441852223
[0, 71, 97, 21, 121, 178, 142, 210, 255], 3.990105012796044
[0, 71, 94, 20, 117, 178, 145, 204, 255], 4.051299042634071
[0, 71, 93, 20, 117, 178, 139, 204, 255], 4.062208039143987
[0, 55, 102, 21, 119, 177, 112, 216, 255], 4.123947356986538
[0, 68, 99, 15, 127, 179, 145, 204, 255], 4.149027325539316
[0, 55, 102, 15, 125, 177, 145, 200, 255], 4.223225038441084
[0, 57, 93, 17, 118, 178, 144, 210, 255], 4.245587723426443
[0, 59, 93, 12, 117, 182, 144, 201, 255], 4.342638099025666
[0, 56, 94, 12, 117, 180, 146, 201, 255], 4.35727824801211
[0, 56, 94, 7, 117, 180, 146, 205, 255], 4.428607826425097
[0, 46, 86, 6, 121, 181, 141, 212, 255], 4.521326847006797
[0, 57, 93, 9, 115, 176, 102, 224, 255], 4.525703215031279
[0, 46, 88, 14, 105, 183, 104, 220, 255], 4.578216137282567
[0, 44, 86, 11, 103, 194, 149, 215, 255], 4.6145855393312285
[0, 39, 88, 11, 103, 194, 153, 215, 255], 4.647881069238987
[0, 39, 86, 7, 111, 177, 118, 216, 255], 4.720060139840594
[0, 42, 87, 10, 96, 205, 105, 211, 255], 4.800313927831296
[0, 42, 87, 10, 96, 205, 105, 211, 255], 4.800313927831296
[0, 49, 87, 10, 95, 215, 105, 209, 255], 4.80333351773292
[0, 49, 84, 10, 95, 215, 103, 233, 255], 4.952135732205711
[0, 42, 87, 3, 95, 218, 103, 233, 255], 5.065991770127229
[0, 42, 87, 3, 95, 218, 103, 233, 255], 5.065991770127229
[0, 31, 90, 10, 95, 221, 103, 233, 255], 5.196511138538568
[0, 28, 82, 13, 90, 222, 103, 233, 255], 5.236418663167417
[0, 28, 82, 13, 90, 222, 103, 233, 255], 5.236418663167417
