# num of test, generation, neighborhood size
4 20 10
# image width height
1700 2200
# image entropy
2.0304521067535792
# avg. time
619.0177809000015s
# best fitness in each run
0.601831547485698 0.0879287381432205 0.10132522194957967 0.10099526343525274 
# avg. std. deviation of best fitness
0.22302019275343773 0.2187735660888071
# best solution
[0, 65, 119, 65, 115, 254, 120, 215, 255]
# enhanced image entropy
1.4809775984522657
original entropy, quality : 2.0304521067535792, 1.1056773774056408
he enhanced entropy, quality : 1.8208189174709737, 1.089381639451795
# history
run 1
[0, 62, 143, 44, 114, 181, 116, 203, 255], 0.03943502258821156
[0, 79, 152, 45, 109, 216, 114, 185, 255], 0.0517785114024539
[0, 79, 152, 45, 109, 216, 114, 185, 255], 0.0517785114024539
[0, 65, 112, 45, 113, 221, 111, 185, 255], 0.05553288863165626
[0, 65, 112, 45, 113, 221, 111, 185, 255], 0.05553288863165626
[0, 65, 112, 45, 113, 221, 111, 185, 255], 0.05553288863165626
[0, 65, 112, 67, 106, 228, 116, 214, 255], 0.05583248267807045
[0, 63, 112, 44, 113, 225, 108, 188, 255], 0.057503771899402506
[0, 63, 112, 44, 113, 225, 108, 188, 255], 0.057503771899402506
[0, 68, 112, 63, 111, 231, 114, 216, 255], 0.05899329479324543
[0, 65, 116, 63, 115, 236, 116, 213, 255], 0.062142575283069865
[0, 65, 116, 63, 115, 236, 116, 213, 255], 0.062142575283069865
[0, 65, 116, 63, 115, 236, 116, 213, 255], 0.062142575283069865
[0, 65, 117, 38, 101, 235, 107, 181, 255], 0.06241104668631457
[0, 71, 117, 64, 118, 239, 120, 213, 255], 0.06345624852304405
[0, 60, 117, 42, 101, 240, 108, 181, 255], 0.06618328212980813
[0, 90, 153, 60, 121, 249, 111, 216, 255], 0.09880159606702452
[0, 69, 99, 60, 121, 253, 111, 221, 255], 0.34090123684344914
[0, 69, 99, 60, 121, 253, 111, 221, 255], 0.34090123684344914
[0, 65, 119, 65, 115, 254, 120, 215, 255], 0.601831547485698
[0, 65, 119, 65, 115, 254, 120, 215, 255], 0.601831547485698
[0, 65, 119, 65, 115, 254, 120, 215, 255], 0.601831547485698
run 2
[0, 72, 145, 73, 151, 205, 131, 170, 255], 0.041831595468653934
[0, 69, 134, 63, 133, 212, 135, 212, 255], 0.04857639889426203
[0, 86, 152, 47, 116, 211, 123, 199, 255], 0.049249436516745335
[0, 80, 150, 63, 132, 217, 113, 179, 255], 0.05051974430428882
[0, 59, 132, 63, 132, 218, 117, 186, 255], 0.051500438839453704
[0, 59, 136, 63, 134, 220, 130, 175, 255], 0.05224840625015487
[0, 86, 152, 41, 117, 221, 107, 193, 255], 0.054210033061853784
[0, 77, 150, 63, 133, 226, 108, 180, 255], 0.05484047747784869
[0, 58, 130, 38, 119, 223, 110, 193, 255], 0.05620339139305227
[0, 80, 150, 47, 119, 227, 113, 214, 255], 0.057390357167446324
[0, 81, 137, 52, 111, 229, 106, 215, 255], 0.0585265039603698
[0, 64, 133, 63, 130, 233, 121, 203, 255], 0.05918505445795605
[0, 36, 130, 30, 117, 229, 104, 190, 255], 0.05933015911960594
[0, 79, 137, 50, 114, 234, 110, 201, 255], 0.0613050398083902
[0, 42, 133, 49, 120, 238, 110, 203, 255], 0.06469494316504645
[0, 42, 133, 49, 120, 238, 110, 203, 255], 0.06469494316504645
[0, 42, 133, 49, 120, 238, 110, 203, 255], 0.06469494316504645
[0, 36, 127, 62, 132, 242, 113, 195, 255], 0.06692742588068402
[0, 36, 127, 62, 132, 242, 113, 195, 255], 0.06692742588068402
[0, 37, 129, 62, 132, 242, 121, 207, 255], 0.06709467163959189
[0, 83, 128, 51, 120, 248, 113, 202, 255], 0.0879287381432205
[0, 83, 128, 51, 120, 248, 113, 202, 255], 0.0879287381432205
run 3
[0, 86, 147, 87, 140, 175, 117, 197, 255], 0.026260539568640183
[0, 49, 131, 42, 151, 213, 118, 179, 255], 0.051222321839448914
[0, 49, 131, 42, 151, 213, 118, 179, 255], 0.051222321839448914
[0, 68, 134, 42, 151, 218, 109, 217, 255], 0.05295485524143447
[0, 68, 134, 42, 151, 218, 109, 217, 255], 0.05295485524143447
[0, 68, 118, 42, 149, 219, 113, 217, 255], 0.05390473905619079
[0, 68, 118, 42, 149, 219, 113, 217, 255], 0.05390473905619079
[0, 47, 133, 42, 155, 224, 111, 179, 255], 0.05609080831061079
[0, 62, 125, 42, 148, 227, 115, 180, 255], 0.05781915718671498
[0, 62, 125, 42, 148, 227, 115, 180, 255], 0.05781915718671498
[0, 52, 133, 37, 152, 231, 121, 183, 255], 0.0599262615047854
[0, 52, 133, 37, 152, 231, 121, 183, 255], 0.0599262615047854
[0, 64, 129, 42, 149, 234, 106, 214, 255], 0.061492300691945015
[0, 60, 126, 42, 150, 237, 111, 179, 255], 0.06352241872989328
[0, 60, 126, 42, 150, 237, 111, 179, 255], 0.06352241872989328
[0, 60, 126, 42, 150, 237, 111, 179, 255], 0.06352241872989328
[0, 70, 118, 38, 155, 240, 109, 217, 255], 0.06599227674009847
[0, 58, 116, 38, 148, 241, 112, 217, 255], 0.06773916555769391
[0, 58, 116, 42, 159, 248, 109, 212, 255], 0.08912377576335911
[0, 58, 116, 42, 159, 248, 109, 212, 255], 0.08912377576335911
[0, 57, 111, 38, 153, 249, 111, 179, 255], 0.10132522194957967
[0, 57, 111, 38, 153, 249, 111, 179, 255], 0.10132522194957967
run 4
[0, 81, 124, 68, 138, 201, 140, 168, 255], 0.04039628232652087
[0, 44, 128, 46, 125, 212, 105, 175, 255], 0.0511374138190372
[0, 44, 128, 46, 125, 212, 105, 175, 255], 0.0511374138190372
[0, 55, 140, 60, 125, 220, 105, 171, 255], 0.05295712058753535
[0, 55, 140, 60, 125, 220, 105, 171, 255], 0.05295712058753535
[0, 55, 140, 60, 125, 220, 105, 171, 255], 0.05295712058753535
[0, 44, 128, 43, 127, 216, 103, 175, 255], 0.05305266558542565
[0, 75, 159, 60, 125, 225, 111, 171, 255], 0.05469713531722953
[0, 36, 119, 61, 127, 225, 103, 173, 255], 0.05609822387551369
[0, 36, 119, 61, 131, 225, 106, 173, 255], 0.056128180961118324
[0, 36, 118, 60, 131, 229, 103, 205, 255], 0.058548425778032674
[0, 34, 113, 62, 122, 234, 102, 181, 255], 0.060717093315472107
[0, 46, 125, 62, 122, 234, 101, 208, 255], 0.06133372939353918
[0, 46, 125, 62, 122, 234, 101, 208, 255], 0.06133372939353918
[0, 44, 130, 57, 122, 239, 106, 171, 255], 0.06423954279738389
[0, 44, 129, 58, 120, 239, 106, 170, 255], 0.064246428512968
[0, 48, 122, 58, 120, 242, 101, 208, 255], 0.06798639382962704
[0, 41, 126, 52, 120, 244, 106, 168, 255], 0.07057691280813826
[0, 41, 126, 52, 120, 244, 106, 168, 255], 0.07057691280813826
[0, 45, 122, 58, 120, 247, 105, 208, 255], 0.08126775453691917
[0, 47, 132, 51, 114, 249, 83, 213, 255], 0.10099526343525274
[0, 47, 132, 51, 114, 249, 83, 213, 255], 0.10099526343525274
