# num of test, generation, neighborhood size
4 20 10
# image width height
389 616
# image entropy
6.102952051075273
# avg. time
50.427206575870514s
# best fitness in each run
7.439320935188909 7.455288392224666 7.431647803318354 7.400516478965419 
# avg. std. deviation of best fitness
7.4316934024243375 0.019917990833628073
# best solution
[0, 87, 130, 42, 128, 227, 130, 230, 255]
# enhanced image entropy
6.017766870411983
original entropy, quality : 6.102952051075273, 7.331938315466464
he enhanced entropy, quality : 5.831730418774924, 7.408362957114637
# history
run 1
[0, 74, 118, 71, 122, 199, 137, 217, 255], 1.9726836914845531
[0, 72, 135, 69, 111, 216, 128, 206, 255], 6.306268696450388
[0, 72, 135, 69, 111, 216, 128, 206, 255], 6.306268696450388
[0, 79, 134, 69, 107, 219, 122, 190, 255], 6.912176865478449
[0, 77, 138, 66, 114, 222, 128, 207, 255], 7.263130923321515
[0, 77, 138, 66, 114, 222, 128, 207, 255], 7.263130923321515
[0, 77, 138, 66, 114, 222, 128, 207, 255], 7.263130923321515
[0, 77, 138, 66, 116, 222, 127, 207, 255], 7.266759977073677
[0, 75, 138, 83, 141, 223, 132, 207, 255], 7.337121790634807
[0, 75, 138, 83, 141, 223, 132, 207, 255], 7.337121790634807
[0, 75, 138, 83, 141, 223, 132, 207, 255], 7.337121790634807
[0, 71, 138, 61, 142, 223, 131, 207, 255], 7.382920791872666
[0, 71, 138, 61, 142, 223, 131, 207, 255], 7.382920791872666
[0, 72, 139, 61, 140, 223, 131, 211, 255], 7.386181722940242
[0, 75, 137, 63, 139, 223, 125, 213, 255], 7.388294836221348
[0, 76, 141, 60, 147, 225, 138, 208, 255], 7.399471643377129
[0, 71, 138, 61, 142, 223, 128, 220, 255], 7.408499736025701
[0, 72, 142, 54, 147, 225, 125, 214, 255], 7.417515669322228
[0, 72, 140, 59, 142, 228, 125, 222, 255], 7.4184679751216835
[0, 74, 128, 54, 147, 225, 126, 214, 255], 7.439320935188909
[0, 74, 128, 54, 147, 225, 126, 214, 255], 7.439320935188909
[0, 74, 128, 54, 147, 225, 126, 214, 255], 7.439320935188909
run 2
[0, 74, 110, 64, 123, 182, 151, 175, 255], 0.5515292515541279
[0, 75, 151, 70, 112, 216, 135, 186, 255], 6.144713084946967
[0, 80, 118, 44, 130, 216, 129, 191, 255], 6.329833250857875
[0, 42, 131, 44, 130, 220, 132, 214, 255], 7.329935186617901
[0, 42, 131, 44, 130, 220, 132, 214, 255], 7.329935186617901
[0, 42, 131, 44, 130, 220, 132, 214, 255], 7.329935186617901
[0, 46, 131, 40, 128, 223, 113, 206, 255], 7.3550248159639455
[0, 46, 131, 40, 128, 223, 113, 206, 255], 7.3550248159639455
[0, 45, 130, 42, 128, 223, 114, 210, 255], 7.3652997580731965
[0, 36, 127, 51, 134, 225, 112, 219, 255], 7.407460164239634
[0, 36, 127, 51, 134, 225, 112, 219, 255], 7.407460164239634
[0, 89, 124, 45, 135, 227, 132, 222, 255], 7.421283889322394
[0, 89, 124, 45, 135, 227, 132, 222, 255], 7.421283889322394
[0, 89, 124, 45, 135, 227, 132, 222, 255], 7.421283889322394
[0, 85, 134, 44, 129, 227, 129, 222, 255], 7.432079798037676
[0, 85, 134, 44, 129, 227, 129, 222, 255], 7.432079798037676
[0, 79, 139, 43, 134, 228, 140, 223, 255], 7.441795531861344
[0, 79, 139, 43, 134, 228, 140, 229, 255], 7.444568517978352
[0, 81, 134, 43, 138, 226, 128, 221, 255], 7.445995939761094
[0, 87, 130, 42, 128, 227, 130, 230, 255], 7.455288392224666
[0, 87, 130, 42, 128, 227, 130, 230, 255], 7.455288392224666
[0, 87, 130, 42, 128, 227, 130, 230, 255], 7.455288392224666
run 3
[0, 46, 147, 65, 140, 196, 123, 194, 255], 1.7142402616898886
[0, 73, 132, 55, 144, 215, 114, 216, 255], 5.984968192978697
[0, 73, 132, 55, 144, 215, 114, 216, 255], 5.984968192978697
[0, 69, 132, 55, 144, 215, 111, 195, 255], 6.000306446820024
[0, 60, 130, 57, 144, 215, 115, 195, 255], 6.002338102493067
[0, 60, 130, 60, 144, 219, 111, 195, 255], 7.179237550284726
[0, 60, 134, 60, 144, 223, 113, 204, 255], 7.352014885792407
[0, 60, 134, 60, 144, 223, 113, 204, 255], 7.352014885792407
[0, 48, 151, 55, 143, 222, 134, 198, 255], 7.3550098969939794
[0, 60, 130, 55, 142, 223, 120, 209, 255], 7.39170863798764
[0, 60, 130, 55, 142, 223, 120, 209, 255], 7.39170863798764
[0, 60, 140, 60, 144, 227, 113, 215, 255], 7.393040972124046
[0, 60, 135, 52, 145, 223, 120, 209, 255], 7.402327185451111
[0, 60, 143, 55, 145, 227, 113, 220, 255], 7.415757772571477
[0, 67, 146, 53, 149, 225, 117, 212, 255], 7.4196147509130395
[0, 62, 148, 53, 149, 225, 113, 224, 255], 7.426537674231525
[0, 62, 148, 53, 149, 225, 113, 224, 255], 7.426537674231525
[0, 61, 142, 51, 139, 225, 117, 220, 255], 7.427317178326711
[0, 61, 142, 51, 139, 225, 117, 220, 255], 7.427317178326711
[0, 58, 121, 49, 147, 224, 118, 212, 255], 7.431647803318354
[0, 58, 121, 49, 147, 224, 118, 212, 255], 7.431647803318354
[0, 58, 121, 49, 147, 224, 118, 212, 255], 7.431647803318354
run 4
[0, 74, 122, 83, 135, 181, 152, 178, 255], 0.5165251875888268
[0, 79, 138, 62, 111, 215, 135, 182, 255], 5.801066538047203
[0, 77, 150, 86, 131, 218, 131, 194, 255], 6.907845191969692
[0, 77, 146, 86, 131, 218, 105, 209, 255], 6.926977451693104
[0, 78, 154, 62, 117, 224, 135, 187, 255], 7.009960418147684
[0, 78, 154, 60, 117, 223, 108, 205, 255], 7.260246065961379
[0, 77, 146, 89, 137, 223, 113, 207, 255], 7.277630980013074
[0, 77, 146, 89, 137, 223, 113, 207, 255], 7.277630980013074
[0, 77, 146, 89, 137, 223, 113, 207, 255], 7.277630980013074
[0, 77, 146, 89, 137, 223, 113, 207, 255], 7.277630980013074
[0, 76, 150, 56, 121, 222, 107, 216, 255], 7.330191442995999
[0, 76, 150, 56, 121, 222, 107, 216, 255], 7.330191442995999
[0, 76, 150, 56, 121, 222, 107, 216, 255], 7.330191442995999
[0, 72, 116, 52, 124, 223, 101, 214, 255], 7.338010070469331
[0, 72, 116, 52, 124, 223, 101, 214, 255], 7.338010070469331
[0, 72, 109, 52, 124, 223, 102, 216, 255], 7.351413404062727
[0, 76, 129, 53, 122, 225, 115, 220, 255], 7.383126292854705
[0, 70, 148, 53, 125, 225, 107, 223, 255], 7.390073957138211
[0, 70, 148, 53, 125, 225, 107, 223, 255], 7.390073957138211
[0, 70, 148, 53, 125, 225, 107, 223, 255], 7.390073957138211
[0, 76, 128, 53, 125, 225, 116, 223, 255], 7.400516478965419
[0, 76, 128, 53, 125, 225, 116, 223, 255], 7.400516478965419
