# num of test, generation, neighborhood size
4 12 10
# image width height
640 480
# image entropy
6.674999866276089
# avg. time
73.5324792265892s
# best fitness in each run
5.90135547490314 5.235745688936377 5.7889182846989575 5.476442964933945 
# avg. std. deviation of best fitness
5.600615603368105 0.26194048404189785
# best solution
[0, 72, 137, 44, 133, 238, 110, 205, 255]
# enhanced image entropy
5.898706767626852
original entropy, quality : 6.674999866276089, 7.497898365149789
he enhanced entropy, quality : 6.665228314545874, 7.802556191455845
# history
run 1
[0, 55, 128, 58, 119, 214, 123, 216, 255], 3.9290063147906524
[0, 71, 149, 72, 145, 217, 144, 211, 255], 4.03138087208413
[0, 44, 133, 46, 135, 217, 110, 174, 255], 4.039233264389739
[0, 85, 102, 73, 145, 221, 114, 198, 255], 4.398243038440269
[0, 81, 111, 46, 137, 222, 132, 192, 255], 4.535736109886745
[0, 81, 111, 46, 137, 222, 132, 192, 255], 4.535736109886745
[0, 63, 147, 68, 145, 224, 129, 198, 255], 4.835114589134533
[0, 63, 147, 68, 145, 224, 129, 198, 255], 4.835114589134533
[0, 80, 112, 46, 131, 228, 128, 212, 255], 5.192288859450216
[0, 73, 152, 46, 123, 230, 108, 210, 255], 5.333896549391188
[0, 73, 152, 46, 123, 230, 108, 210, 255], 5.333896549391188
[0, 78, 135, 74, 145, 234, 116, 192, 255], 5.521572389418259
[0, 72, 137, 44, 133, 238, 110, 205, 255], 5.90135547490314
[0, 72, 137, 44, 133, 238, 110, 205, 255], 5.90135547490314
run 2
[0, 75, 135, 82, 143, 205, 111, 194, 255], 3.000021662381937
[0, 67, 135, 74, 143, 217, 141, 196, 255], 4.085157819229425
[0, 67, 135, 74, 143, 217, 141, 196, 255], 4.085157819229425
[0, 67, 135, 74, 143, 217, 141, 196, 255], 4.085157819229425
[0, 67, 135, 74, 143, 217, 141, 196, 255], 4.085157819229425
[0, 45, 120, 74, 140, 221, 107, 208, 255], 4.385137462599833
[0, 42, 118, 74, 143, 223, 107, 205, 255], 4.546373891172213
[0, 85, 149, 76, 145, 224, 127, 166, 255], 4.716317521328165
[0, 72, 135, 76, 143, 224, 109, 213, 255], 4.721306367965014
[0, 87, 149, 73, 139, 227, 127, 166, 255], 4.9264634919338866
[0, 87, 149, 73, 139, 227, 127, 166, 255], 4.9264634919338866
[0, 44, 111, 78, 144, 229, 113, 215, 255], 5.093168195345033
[0, 44, 126, 76, 143, 229, 123, 218, 255], 5.235745688936377
[0, 44, 126, 76, 143, 229, 123, 218, 255], 5.235745688936377
run 3
[0, 76, 131, 56, 136, 184, 107, 216, 255], 1.6559493079404455
[0, 59, 116, 74, 130, 217, 116, 213, 255], 4.100175169066381
[0, 62, 105, 64, 129, 217, 117, 198, 255], 4.101744676391638
[0, 55, 144, 47, 120, 218, 144, 214, 255], 4.162412196196849
[0, 62, 107, 66, 147, 220, 121, 197, 255], 4.372293762373529
[0, 68, 126, 64, 129, 225, 116, 213, 255], 4.887538360570002
[0, 68, 126, 64, 129, 225, 116, 213, 255], 4.887538360570002
[0, 68, 126, 64, 129, 225, 116, 213, 255], 4.887538360570002
[0, 64, 140, 71, 128, 231, 121, 197, 255], 5.3711220163025795
[0, 55, 133, 71, 130, 231, 112, 213, 255], 5.381137303740842
[0, 67, 123, 63, 145, 231, 128, 195, 255], 5.417791708253046
[0, 55, 133, 75, 130, 236, 112, 213, 255], 5.7889182846989575
[0, 55, 133, 75, 130, 236, 112, 213, 255], 5.7889182846989575
[0, 55, 133, 75, 130, 236, 112, 213, 255], 5.7889182846989575
run 4
[0, 78, 140, 42, 143, 213, 150, 206, 255], 3.1004701779934294
[0, 79, 146, 67, 141, 216, 130, 181, 255], 4.013473884478865
[0, 89, 117, 42, 145, 216, 128, 186, 255], 4.023103489103241
[0, 89, 117, 42, 145, 216, 128, 186, 255], 4.023103489103241
[0, 65, 143, 67, 147, 222, 133, 186, 255], 4.572971814437947
[0, 65, 143, 67, 147, 222, 133, 186, 255], 4.572971814437947
[0, 89, 117, 67, 147, 222, 131, 191, 255], 4.599451008198617
[0, 62, 143, 72, 147, 225, 126, 186, 255], 4.884054370717339
[0, 62, 143, 70, 152, 229, 126, 189, 255], 5.158230099552154
[0, 62, 143, 70, 152, 229, 126, 189, 255], 5.158230099552154
[0, 62, 143, 70, 152, 229, 126, 189, 255], 5.158230099552154
[0, 45, 152, 42, 146, 231, 121, 184, 255], 5.340344193004585
[0, 45, 152, 70, 152, 232, 126, 189, 255], 5.476442964933945
[0, 45, 152, 70, 152, 232, 126, 189, 255], 5.476442964933945
