# num of test, generation, neighborhood size
4 12 10
# image width height
640 480
# image entropy
2.656596866087945
# avg. time
39.50533252954483s
# best fitness in each run
0.17186405924706477 0.16185003435331066 0.154408864600247 0.1527197551565051 
# avg. std. deviation of best fitness
0.16021067833928188 0.007554199949619543
# best solution
[0, 54, 128, 69, 132, 240, 112, 211, 255]
# enhanced image entropy
0.891354802922815
original entropy, quality : 2.656596866087945, 2.060403742511635
he enhanced entropy, quality : 2.408619523905944, 2.0507412055221366
# history
run 1
[0, 59, 104, 71, 153, 187, 107, 169, 255], 0.07245549963390463
[0, 47, 120, 63, 127, 216, 130, 215, 255], 0.11957254763599771
[0, 86, 150, 60, 137, 217, 121, 191, 255], 0.12205361496468078
[0, 86, 150, 60, 137, 217, 121, 191, 255], 0.12205361496468078
[0, 72, 115, 54, 127, 217, 107, 169, 255], 0.12297900016993826
[0, 75, 147, 61, 138, 222, 132, 189, 255], 0.1308979832591673
[0, 88, 147, 58, 127, 222, 108, 201, 255], 0.13218256264437236
[0, 52, 117, 63, 127, 229, 102, 197, 255], 0.14586413796498732
[0, 50, 126, 65, 128, 231, 102, 199, 255], 0.15008407376069335
[0, 50, 126, 65, 128, 231, 102, 199, 255], 0.15008407376069335
[0, 52, 126, 65, 128, 236, 107, 198, 255], 0.16167755886491955
[0, 54, 128, 69, 132, 240, 112, 211, 255], 0.17186405924706477
[0, 54, 128, 69, 132, 240, 112, 211, 255], 0.17186405924706477
[0, 54, 128, 69, 132, 240, 112, 211, 255], 0.17186405924706477
run 2
[0, 88, 126, 73, 143, 216, 139, 169, 255], 0.11394822111741379
[0, 88, 126, 73, 143, 216, 139, 169, 255], 0.11394822111741379
[0, 78, 136, 45, 127, 215, 109, 185, 255], 0.11958837937522139
[0, 69, 117, 45, 127, 218, 109, 185, 255], 0.12569395568582944
[0, 69, 133, 45, 120, 220, 106, 192, 255], 0.12895039738605044
[0, 69, 133, 45, 120, 220, 106, 192, 255], 0.12895039738605044
[0, 69, 133, 45, 120, 220, 106, 192, 255], 0.12895039738605044
[0, 63, 136, 44, 120, 224, 100, 194, 255], 0.13687335508981155
[0, 75, 136, 40, 115, 226, 103, 191, 255], 0.13978887366153983
[0, 49, 136, 47, 115, 228, 103, 184, 255], 0.1436313721308621
[0, 49, 138, 47, 112, 228, 103, 187, 255], 0.14417885757878046
[0, 75, 136, 40, 115, 233, 103, 196, 255], 0.15477696987618847
[0, 75, 131, 42, 115, 236, 109, 196, 255], 0.16185003435331066
[0, 75, 131, 42, 115, 236, 109, 196, 255], 0.16185003435331066
run 3
[0, 40, 131, 86, 129, 200, 110, 197, 255], 0.08966784388453318
[0, 69, 111, 66, 115, 212, 125, 216, 255], 0.11143296380443
[0, 63, 143, 66, 115, 214, 125, 213, 255], 0.1161861276006861
[0, 67, 141, 66, 115, 219, 129, 209, 255], 0.12492144165678273
[0, 72, 141, 67, 115, 221, 144, 214, 255], 0.1273323681640075
[0, 72, 141, 72, 112, 222, 143, 218, 255], 0.1281556043555898
[0, 64, 137, 66, 113, 222, 128, 209, 255], 0.1310128225547772
[0, 67, 140, 64, 111, 228, 136, 212, 255], 0.14251111844386088
[0, 67, 140, 64, 111, 228, 113, 194, 255], 0.14299995530701642
[0, 67, 140, 64, 111, 228, 113, 194, 255], 0.14299995530701642
[0, 67, 143, 59, 110, 230, 136, 218, 255], 0.146830867019715
[0, 83, 159, 70, 116, 232, 136, 213, 255], 0.14856842899822578
[0, 61, 129, 59, 110, 233, 102, 192, 255], 0.154408864600247
[0, 61, 129, 59, 110, 233, 102, 192, 255], 0.154408864600247
run 4
[0, 59, 115, 61, 142, 202, 105, 186, 255], 0.09771926993196366
[0, 73, 116, 61, 141, 210, 120, 187, 255], 0.11078635249203307
[0, 73, 116, 61, 141, 210, 120, 187, 255], 0.11078635249203307
[0, 88, 152, 69, 129, 217, 154, 212, 255], 0.11842504241271216
[0, 40, 148, 84, 113, 219, 137, 200, 255], 0.11862941067829197
[0, 40, 148, 84, 113, 219, 137, 200, 255], 0.11862941067829197
[0, 40, 148, 89, 105, 223, 110, 182, 255], 0.1253494607919405
[0, 42, 146, 74, 129, 226, 114, 191, 255], 0.1366833405114145
[0, 42, 146, 71, 123, 229, 104, 182, 255], 0.1431143099785455
[0, 40, 141, 71, 122, 230, 111, 191, 255], 0.1452793487410553
[0, 42, 142, 68, 122, 230, 111, 191, 255], 0.1461469947044341
[0, 45, 127, 64, 126, 231, 112, 189, 255], 0.1496925840709175
[0, 42, 142, 67, 119, 233, 121, 187, 255], 0.1527197551565051
[0, 42, 142, 67, 119, 233, 121, 187, 255], 0.1527197551565051
