# num of test, generation, neighborhood size
4 20 10
# image width height
512 512
# image entropy
7.482640073047044
# avg. time
55.30542612075806s
# best fitness in each run
8.64333196523923 8.761130925717923 8.739407604402393 8.643048694245847 
# avg. std. deviation of best fitness
8.69672979740135 0.05408763688328333
# best solution
[0, 28, 114, 29, 132, 230, 110, 211, 255]
# enhanced image entropy
7.035137430020312
original entropy, quality : 7.482640073047044, 9.436405928195775
he enhanced entropy, quality : 7.288806546228254, 9.377760727300242
# history
run 1
[0, 87, 153, 84, 140, 205, 151, 217, 255], 3.542129392323561
[0, 60, 118, 40, 139, 210, 105, 184, 255], 7.053180780618621
[0, 60, 118, 40, 139, 210, 105, 184, 255], 7.053180780618621
[0, 45, 127, 44, 101, 216, 131, 183, 255], 7.155743019825803
[0, 45, 127, 44, 101, 216, 131, 183, 255], 7.155743019825803
[0, 63, 108, 44, 102, 220, 112, 177, 255], 7.383579795991785
[0, 45, 127, 44, 130, 223, 101, 179, 255], 7.586723289219036
[0, 47, 134, 37, 100, 215, 119, 209, 255], 7.615860456068862
[0, 50, 126, 44, 136, 228, 127, 183, 255], 7.728554791760867
[0, 58, 123, 42, 137, 226, 105, 191, 255], 7.953229408776185
[0, 63, 107, 42, 133, 228, 110, 210, 255], 8.06796615194161
[0, 63, 107, 42, 133, 228, 110, 210, 255], 8.06796615194161
[0, 41, 125, 29, 100, 221, 126, 203, 255], 8.280076647216843
[0, 41, 123, 28, 100, 223, 109, 195, 255], 8.47220805437854
[0, 41, 123, 28, 100, 223, 109, 195, 255], 8.47220805437854
[0, 59, 107, 28, 104, 223, 100, 196, 255], 8.482579978833195
[0, 59, 107, 28, 104, 223, 100, 196, 255], 8.482579978833195
[0, 62, 102, 28, 104, 225, 100, 196, 255], 8.601907000138706
[0, 62, 102, 28, 104, 225, 100, 196, 255], 8.601907000138706
[0, 44, 123, 26, 100, 228, 109, 197, 255], 8.630446954161043
[0, 38, 121, 26, 135, 227, 112, 195, 255], 8.64333196523923
[0, 38, 121, 26, 135, 227, 112, 195, 255], 8.64333196523923
run 2
[0, 76, 151, 43, 142, 213, 148, 198, 255], 6.746309759388074
[0, 76, 151, 43, 142, 213, 148, 198, 255], 6.746309759388074
[0, 77, 154, 43, 140, 213, 146, 196, 255], 6.757034538463622
[0, 76, 151, 43, 145, 214, 148, 201, 255], 6.788201195523564
[0, 88, 146, 43, 145, 216, 148, 201, 255], 6.895893720302358
[0, 70, 128, 36, 145, 214, 123, 183, 255], 7.300079946772507
[0, 70, 128, 36, 145, 214, 123, 183, 255], 7.300079946772507
[0, 43, 111, 41, 146, 223, 152, 201, 255], 7.370930433824247
[0, 44, 118, 43, 139, 224, 120, 215, 255], 7.886756147386029
[0, 54, 114, 41, 147, 230, 129, 209, 255], 7.973452103082628
[0, 41, 110, 41, 137, 226, 107, 210, 255], 8.22445082578258
[0, 41, 110, 41, 137, 226, 107, 210, 255], 8.22445082578258
[0, 44, 110, 41, 140, 229, 107, 213, 255], 8.240545689909638
[0, 45, 121, 35, 150, 226, 130, 209, 255], 8.285739577281616
[0, 38, 107, 39, 147, 230, 106, 219, 255], 8.400377332281131
[0, 44, 118, 32, 145, 230, 110, 209, 255], 8.52089354746281
[0, 44, 118, 32, 145, 230, 110, 209, 255], 8.52089354746281
[0, 44, 110, 32, 137, 230, 111, 209, 255], 8.665416156484051
[0, 38, 105, 32, 145, 230, 106, 224, 255], 8.67389888643826
[0, 28, 114, 29, 132, 230, 110, 211, 255], 8.761130925717923
[0, 28, 114, 29, 132, 230, 110, 211, 255], 8.761130925717923
[0, 28, 114, 29, 132, 230, 110, 211, 255], 8.761130925717923
run 3
[0, 44, 135, 42, 115, 206, 126, 196, 255], 6.776493965247186
[0, 44, 135, 42, 115, 206, 126, 196, 255], 6.776493965247186
[0, 42, 130, 42, 116, 216, 129, 179, 255], 7.25860199149462
[0, 42, 130, 42, 116, 216, 129, 179, 255], 7.25860199149462
[0, 56, 115, 42, 118, 222, 126, 179, 255], 7.59001147888717
[0, 56, 115, 42, 118, 222, 126, 179, 255], 7.59001147888717
[0, 38, 131, 42, 112, 224, 124, 179, 255], 7.771020093830242
[0, 45, 135, 39, 128, 226, 152, 190, 255], 7.940841890141492
[0, 37, 134, 38, 112, 226, 145, 181, 255], 8.026769716997745
[0, 36, 130, 31, 121, 224, 142, 182, 255], 8.211783251642993
[0, 44, 134, 37, 116, 231, 107, 202, 255], 8.424691652697067
[0, 44, 134, 37, 116, 231, 107, 202, 255], 8.424691652697067
[0, 44, 134, 37, 116, 231, 107, 202, 255], 8.424691652697067
[0, 33, 126, 32, 124, 228, 111, 204, 255], 8.616786802813868
[0, 29, 124, 32, 118, 229, 118, 204, 255], 8.628549248307529
[0, 29, 124, 32, 118, 229, 118, 204, 255], 8.628549248307529
[0, 35, 125, 30, 126, 232, 102, 199, 255], 8.663845013091311
[0, 37, 115, 24, 132, 226, 113, 194, 255], 8.67299133946633
[0, 31, 120, 26, 132, 234, 110, 204, 255], 8.700694374376468
[0, 34, 115, 22, 126, 228, 110, 204, 255], 8.724320245675921
[0, 21, 121, 24, 113, 231, 113, 203, 255], 8.739407604402393
[0, 21, 121, 24, 113, 231, 113, 203, 255], 8.739407604402393
run 4
[0, 79, 111, 68, 148, 190, 147, 213, 255], 3.4597624787560144
[0, 74, 109, 41, 128, 202, 140, 190, 255], 6.233545507131241
[0, 74, 109, 41, 128, 202, 140, 190, 255], 6.233545507131241
[0, 43, 151, 41, 128, 204, 125, 168, 255], 6.62328671772406
[0, 74, 103, 39, 124, 202, 114, 187, 255], 6.654907910297032
[0, 55, 102, 38, 128, 207, 135, 209, 255], 6.711836131075836
[0, 55, 104, 35, 128, 209, 135, 206, 255], 6.9711281148414095
[0, 55, 104, 38, 130, 212, 121, 168, 255], 7.1443399262842515
[0, 65, 121, 35, 130, 212, 124, 169, 255], 7.267114699290907
[0, 65, 121, 35, 130, 212, 124, 169, 255], 7.267114699290907
[0, 42, 153, 38, 123, 215, 140, 193, 255], 7.38509925920906
[0, 59, 102, 33, 131, 216, 104, 190, 255], 7.811937990829983
[0, 59, 102, 31, 129, 216, 108, 190, 255], 7.821602557842378
[0, 55, 104, 30, 131, 216, 104, 189, 255], 7.905005957667857
[0, 50, 107, 31, 129, 223, 104, 187, 255], 8.423045296902005
[0, 50, 107, 31, 129, 223, 104, 187, 255], 8.423045296902005
[0, 50, 107, 29, 131, 224, 105, 206, 255], 8.559341540213577
[0, 49, 114, 28, 129, 225, 109, 196, 255], 8.570444512092157
[0, 49, 114, 28, 129, 225, 109, 196, 255], 8.570444512092157
[0, 50, 112, 29, 134, 227, 105, 203, 255], 8.606250714142986
[0, 49, 112, 24, 129, 228, 108, 196, 255], 8.643048694245847
[0, 49, 112, 24, 129, 228, 108, 196, 255], 8.643048694245847
