# num of test, generation, neighborhood size
4 20 10
# image width height
512 512
# image entropy
7.236707812803108
# avg. time
54.29412943124771s
# best fitness in each run
8.509722908458208 8.694577286955328 8.798443949003746 8.74139339573981 
# avg. std. deviation of best fitness
8.686034385039274 0.10823498519860346
# best solution
[0, 29, 115, 37, 101, 212, 94, 197, 255]
# enhanced image entropy
7.056787248606785
original entropy, quality : 7.236707812803108, 9.014795507616746
he enhanced entropy, quality : 7.154494630577338, 9.14707315229908
# history
run 1
[0, 41, 130, 63, 150, 181, 120, 168, 255], 6.295893554816277
[0, 46, 151, 43, 139, 215, 143, 189, 255], 7.23642907113437
[0, 46, 151, 43, 139, 215, 143, 189, 255], 7.23642907113437
[0, 41, 148, 39, 114, 204, 130, 197, 255], 7.775690491417942
[0, 41, 148, 39, 114, 204, 130, 197, 255], 7.775690491417942
[0, 61, 147, 38, 129, 203, 130, 194, 255], 7.866723410945435
[0, 72, 117, 39, 114, 204, 117, 171, 255], 8.260447604350656
[0, 72, 117, 39, 114, 204, 117, 171, 255], 8.260447604350656
[0, 72, 117, 39, 114, 204, 117, 171, 255], 8.260447604350656
[0, 60, 114, 39, 114, 206, 117, 176, 255], 8.302587481737493
[0, 60, 114, 39, 114, 206, 117, 176, 255], 8.302587481737493
[0, 60, 114, 39, 114, 206, 117, 176, 255], 8.302587481737493
[0, 41, 120, 32, 113, 210, 119, 161, 255], 8.347916640834178
[0, 42, 128, 37, 117, 209, 117, 195, 255], 8.436185346392183
[0, 42, 128, 37, 117, 209, 117, 195, 255], 8.436185346392183
[0, 60, 117, 37, 112, 206, 117, 176, 255], 8.46976447650952
[0, 72, 112, 37, 117, 209, 110, 170, 255], 8.502084385937685
[0, 72, 112, 37, 117, 209, 110, 170, 255], 8.502084385937685
[0, 72, 112, 37, 117, 209, 110, 170, 255], 8.502084385937685
[0, 40, 120, 34, 113, 215, 116, 175, 255], 8.509722908458208
[0, 40, 120, 34, 113, 215, 116, 175, 255], 8.509722908458208
[0, 40, 120, 34, 113, 215, 116, 175, 255], 8.509722908458208
run 2
[0, 64, 152, 55, 128, 180, 144, 174, 255], 5.859724614777993
[0, 87, 106, 45, 118, 207, 106, 174, 255], 7.42936164866298
[0, 76, 110, 38, 119, 181, 111, 197, 255], 7.923761294805499
[0, 76, 110, 38, 119, 181, 111, 197, 255], 7.923761294805499
[0, 51, 115, 41, 119, 203, 108, 174, 255], 7.959302867810025
[0, 51, 115, 41, 119, 203, 108, 174, 255], 7.959302867810025
[0, 47, 110, 38, 118, 186, 108, 174, 255], 8.138624784997877
[0, 47, 110, 38, 116, 186, 109, 177, 255], 8.161443618449086
[0, 73, 111, 37, 122, 201, 112, 201, 255], 8.340948653592916
[0, 47, 110, 39, 118, 210, 108, 174, 255], 8.403211825916536
[0, 47, 110, 39, 118, 210, 108, 174, 255], 8.403211825916536
[0, 47, 110, 35, 122, 201, 112, 198, 255], 8.415517458703759
[0, 54, 117, 37, 115, 210, 113, 178, 255], 8.516732188724404
[0, 34, 111, 39, 108, 204, 99, 180, 255], 8.613820830096385
[0, 34, 111, 39, 108, 204, 99, 180, 255], 8.613820830096385
[0, 34, 111, 39, 108, 204, 99, 180, 255], 8.613820830096385
[0, 34, 111, 39, 108, 204, 99, 180, 255], 8.613820830096385
[0, 34, 111, 39, 108, 204, 99, 180, 255], 8.613820830096385
[0, 29, 110, 39, 108, 212, 99, 179, 255], 8.623416087647891
[0, 51, 108, 37, 111, 213, 107, 177, 255], 8.671286221682713
[0, 55, 105, 37, 107, 210, 103, 200, 255], 8.694577286955328
[0, 55, 105, 37, 107, 210, 103, 200, 255], 8.694577286955328
run 3
[0, 74, 135, 40, 105, 172, 128, 207, 255], 7.02621264733612
[0, 48, 138, 43, 117, 192, 106, 203, 255], 7.443994038352965
[0, 48, 138, 43, 117, 192, 106, 203, 255], 7.443994038352965
[0, 48, 138, 43, 117, 192, 106, 203, 255], 7.443994038352965
[0, 74, 132, 44, 109, 217, 109, 204, 255], 7.626817836280219
[0, 55, 145, 39, 111, 193, 101, 186, 255], 8.029450666186888
[0, 55, 145, 39, 111, 193, 101, 186, 255], 8.029450666186888
[0, 48, 124, 37, 124, 198, 93, 191, 255], 8.317141766432334
[0, 50, 135, 37, 108, 216, 105, 207, 255], 8.512860440576604
[0, 48, 125, 36, 108, 218, 108, 191, 255], 8.561897816712856
[0, 48, 125, 36, 108, 218, 108, 191, 255], 8.561897816712856
[0, 48, 125, 36, 108, 218, 108, 191, 255], 8.561897816712856
[0, 54, 122, 38, 103, 216, 93, 194, 255], 8.59915174101327
[0, 45, 120, 36, 97, 213, 97, 189, 255], 8.692544404553791
[0, 45, 120, 36, 97, 213, 97, 189, 255], 8.692544404553791
[0, 45, 120, 36, 97, 213, 97, 189, 255], 8.692544404553791
[0, 48, 119, 36, 97, 215, 95, 193, 255], 8.71509016013723
[0, 34, 115, 36, 92, 210, 96, 188, 255], 8.772521483551257
[0, 34, 115, 36, 92, 210, 96, 188, 255], 8.772521483551257
[0, 34, 115, 36, 92, 210, 96, 188, 255], 8.772521483551257
[0, 29, 115, 37, 101, 212, 94, 197, 255], 8.798443949003746
[0, 29, 115, 37, 101, 212, 94, 197, 255], 8.798443949003746
run 4
[0, 81, 130, 64, 141, 182, 116, 191, 255], 5.843571877638491
[0, 45, 123, 51, 129, 211, 109, 173, 255], 7.115608091772915
[0, 45, 123, 51, 129, 211, 109, 173, 255], 7.115608091772915
[0, 75, 133, 49, 129, 213, 109, 198, 255], 7.1222289386543975
[0, 80, 137, 46, 121, 217, 130, 181, 255], 7.214454071746941
[0, 80, 137, 44, 124, 221, 130, 181, 255], 7.3955583393387565
[0, 75, 143, 41, 121, 222, 111, 179, 255], 7.848610907942702
[0, 80, 137, 38, 116, 220, 130, 186, 255], 8.126123349950843
[0, 60, 119, 38, 112, 220, 127, 185, 255], 8.174565825514042
[0, 36, 110, 38, 112, 217, 109, 208, 255], 8.637385925789255
[0, 36, 110, 38, 112, 217, 109, 208, 255], 8.637385925789255
[0, 36, 110, 38, 112, 217, 109, 208, 255], 8.637385925789255
[0, 36, 110, 38, 112, 217, 109, 208, 255], 8.637385925789255
[0, 37, 108, 38, 112, 215, 109, 208, 255], 8.737866077260687
[0, 37, 108, 38, 112, 215, 109, 208, 255], 8.737866077260687
[0, 37, 108, 38, 112, 215, 109, 208, 255], 8.737866077260687
[0, 37, 108, 38, 112, 215, 109, 208, 255], 8.737866077260687
[0, 37, 108, 38, 112, 215, 109, 208, 255], 8.737866077260687
[0, 37, 108, 38, 112, 215, 109, 208, 255], 8.737866077260687
[0, 37, 108, 38, 112, 215, 109, 208, 255], 8.737866077260687
[0, 35, 106, 38, 108, 215, 101, 201, 255], 8.74139339573981
[0, 35, 106, 38, 108, 215, 101, 201, 255], 8.74139339573981
