# num of test, generation, neighborhood size
4 20 10
# image width height
720 960
# image entropy
6.953708172980524
# avg. time
150.67832666635513s
# best fitness in each run
6.2607818742441115 6.047455819881675 6.171722431312654 6.2888812961516996 
# avg. std. deviation of best fitness
6.192210355397535 0.0941022775613612
# best solution
[87, 8.62419869705015, 131, 51.09995823960731, 162, 11.380038133777816]
# enhanced image entropy
5.395117223798068
original entropy, quality : 6.953708172980524, 8.312790251207593
he enhanced entropy, quality : 6.717357940129492, 8.225081748773318
# history
run 1
[96, 8, 128, 32, 160, 8], 2.729020934839222
[96, 8, 128, 32, 160, 8], 2.729020934839222
[96, 8, 123, 32, 160, 8], 3.0552051563269047
[96, 10.165062120571614, 127, 33.624532594173985, 160, 10.669700359589768], 3.239397896584084
[96, 10.472954242558805, 123, 33.319641215453174, 160, 8], 3.3491679724889907
[96, 10.621611151582306, 127, 37.717052671640374, 157, 8], 4.340683666212494
[96, 8, 128, 37.74099799416895, 160, 15.175392347158347], 4.3853876329733925
[96, 9.146248944022648, 128, 37.74099799416895, 157, 15.175392347158347], 4.3921668111956444
[96, 9.146248944022648, 123, 39.111211220966226, 160, 11.646923106505675], 4.672553421725418
[96, 10.472954242558805, 128, 40.52464216917399, 160, 15.175392347158347], 5.157315557811114
[96, 10.472954242558805, 128, 40.52464216917399, 160, 15.175392347158347], 5.157315557811114
[96, 8.669613830198426, 126, 47.39141984366283, 160, 12.251534600603229], 5.746334199748483
[96, 8.669613830198426, 126, 47.39141984366283, 160, 12.251534600603229], 5.746334199748483
[96, 8.669613830198426, 123, 47.39141984366283, 164, 12.251534600603229], 5.894950826747482
[90, 11.100720149878015, 126, 48.747269618240814, 160, 10.623043187993666], 6.159089622706252
[90, 11.100720149878015, 126, 48.747269618240814, 160, 10.623043187993666], 6.159089622706252
[87, 11.100720149878015, 126, 48.747269618240814, 160, 10.623043187993666], 6.184205345694905
[87, 11.100720149878015, 126, 48.747269618240814, 160, 10.623043187993666], 6.184205345694905
[99, 13.619688176977512, 123, 50.959186858583635, 164, 15.22439905958253], 6.1858699960695835
[99, 13.619688176977512, 120, 50.959186858583635, 164, 15.22439905958253], 6.244718592356085
[87, 17.68872554018789, 126, 48.747269618240814, 160, 10.264042273581452], 6.2607818742441115
[87, 17.68872554018789, 126, 48.747269618240814, 160, 10.264042273581452], 6.2607818742441115
run 2
[96, 8, 128, 32, 160, 8], 2.729020934839222
[96, 8, 128, 32, 160, 8], 2.729020934839222
[96, 7.724925692709166, 128, 33.3168693794863, 160, 8], 3.0970005945857366
[96, 8.32580198371413, 128, 33.58120601569228, 160, 8], 3.169518478090324
[96, 7.724925692709166, 126, 33.40163795288207, 160, 8.66486227976861], 3.222158224449845
[100, 6.424428506926326, 123, 33.42000817821141, 162, 6.819073293920086], 3.3496715882106463
[96, 10.418528986011495, 128, 35.69045311179327, 159, 8], 3.816953882113236
[100, 8, 123, 36.21612868761185, 162, 5.503783364036021], 4.028381016755219
[100, 3.065667390286938, 126, 37.7460291924457, 162, 6.641587784614935], 4.291661706667645
[96, 11.28253997083716, 127, 39.32429221394287, 147, 8.66486227976861], 4.759353567446894
[96, 11.28253997083716, 127, 39.32429221394287, 147, 8.66486227976861], 4.759353567446894
[98, 5.909470720333468, 130, 39.45417959734899, 154, 9.222055751774608], 4.801173398401949
[92, 8.654983437360515, 130, 39.45417959734899, 154, 9.222055751774608], 4.829475860821576
[92, 4.5071677590846635, 127, 45.54572073381868, 147, 11.230839880812184], 5.640913126609356
[92, 4.5071677590846635, 127, 45.54572073381868, 147, 11.230839880812184], 5.640913126609356
[96, 12.849397226702589, 127, 45.54572073381868, 150, 11.230839880812184], 5.6842723742777155
[92, 4.5071677590846635, 127, 46.03462842856922, 147, 11.230839880812184], 5.791339935928265
[92, 4.5071677590846635, 127, 46.03462842856922, 147, 11.230839880812184], 5.791339935928265
[86, 11.379693535812619, 126, 48.14115405952596, 165, 8.218887709694824], 6.018264270615022
[86, 11.379693535812619, 126, 48.14115405952596, 148, 11.230839880812184], 6.047455819881675
[86, 11.379693535812619, 126, 48.14115405952596, 148, 11.230839880812184], 6.047455819881675
[86, 11.379693535812619, 126, 48.14115405952596, 148, 11.230839880812184], 6.047455819881675
run 3
[96, 8, 128, 32, 160, 8], 2.729020934839222
[96, 8, 128, 32, 160, 8], 2.729020934839222
[96, 8, 128, 34.627463549092056, 160, 6.789288222731741], 3.495906591945163
[96, 8, 128, 35.15596342565741, 161, 8], 3.6388108023713963
[96, 8, 128, 35.15596342565741, 161, 8], 3.6388108023713963
[96, 8, 128, 36.152165358634235, 160, 3.2590888216025817], 3.8963903042378614
[101, 8, 128, 39.96592011690734, 156, 8], 4.939191788608166
[94, 8, 128, 39.96592011690734, 158, 6.789288222731741], 4.949597137511024
[94, 8, 128, 39.96592011690734, 158, 6.789288222731741], 4.949597137511024
[101, 8.330558546635627, 128, 41.516124221642244, 156, 10.303269770932747], 5.013808236611183
[100, 8.330558546635627, 124, 41.516124221642244, 158, 10.303269770932747], 5.246060112521123
[100, 8.330558546635627, 124, 41.516124221642244, 158, 10.303269770932747], 5.246060112521123
[94, 8, 128, 43.26186209284901, 161, 3.4504806096411276], 5.4218438952735495
[93, 5.6812815246526025, 126, 46.91352230631456, 165, 6.676209017150068], 5.637201952020052
[92, 8, 126, 46.91352230631456, 162, 7.0477867597787895], 5.659432026178906
[88, 12.285805703596727, 129, 45.3847686140843, 162, 3.7226578951311833], 5.755064551576885
[94, 5.888421457750765, 118, 46.91352230631456, 157, 11.867017116759266], 5.842116337932266
[88, 12.285805703596727, 129, 49.113610718477545, 162, 4.276963803021089], 6.171722431312654
[88, 12.285805703596727, 129, 49.113610718477545, 162, 4.276963803021089], 6.171722431312654
[88, 12.285805703596727, 129, 49.113610718477545, 162, 4.276963803021089], 6.171722431312654
[88, 12.285805703596727, 129, 49.113610718477545, 162, 4.276963803021089], 6.171722431312654
[88, 12.285805703596727, 129, 49.113610718477545, 162, 4.276963803021089], 6.171722431312654
run 4
[96, 8, 128, 32, 160, 8], 2.729020934839222
[96, 8, 128, 32, 160, 8], 2.729020934839222
[96, 7.833542403817557, 128, 32.8137519375513, 160, 8], 2.9367930978386956
[96, 10.068823723832674, 128, 35.209479283478785, 160, 8.255762165439176], 3.6692865547111952
[96, 10.068823723832674, 128, 35.209479283478785, 160, 8.255762165439176], 3.6692865547111952
[94, 10.033521045505347, 128, 35.209479283478785, 154, 11.349987789997847], 3.685429192885543
[95, 1.620422250260332, 128, 40.10029418882789, 155, 8], 4.964936800474759
[95, 1.620422250260332, 128, 40.10029418882789, 155, 8], 4.964936800474759
[96, 10.257440751296462, 134, 42.03346636886136, 160, 4.594982152589344], 5.049790058024976
[91, 8.62419869705015, 134, 42.03346636886136, 160, 6.481511446895818], 5.058653391100706
[98, 10.257440751296462, 138, 42.03346636886136, 157, 10.430646979661198], 5.177040740855328
[91, 8.62419869705015, 134, 43.79590617055769, 160, 6.481511446895818], 5.587249418753778
[91, 8.62419869705015, 134, 43.79590617055769, 160, 6.481511446895818], 5.587249418753778
[91, 8.62419869705015, 134, 47.18577391351287, 160, 7.6918546459762895], 5.9292258971460345
[91, 8.62419869705015, 134, 47.18577391351287, 160, 7.6918546459762895], 5.9292258971460345
[91, 8.62419869705015, 134, 47.18577391351287, 160, 7.6918546459762895], 5.9292258971460345
[91, 8.62419869705015, 134, 47.18577391351287, 160, 7.6918546459762895], 5.9292258971460345
[91, 8.62419869705015, 134, 47.18577391351287, 160, 7.6918546459762895], 5.9292258971460345
[92, 8.62419869705015, 131, 51.09995823960731, 162, 11.380038133777816], 6.256157258844097
[87, 8.62419869705015, 131, 51.09995823960731, 162, 11.380038133777816], 6.2888812961516996
[87, 8.62419869705015, 131, 51.09995823960731, 162, 11.380038133777816], 6.2888812961516996
[87, 8.62419869705015, 131, 51.09995823960731, 162, 11.380038133777816], 6.2888812961516996
