# num of test, generation, neighborhood size
4 20 10
# image width height
640 480
# image entropy
6.674999866276089
# avg. time
54.021998941898346s
# best fitness in each run
6.971577323602536 6.972980730951937 7.196229069959145 6.915350707890328 
# avg. std. deviation of best fitness
7.014034458100987 0.10772810210018649
# best solution
[96, 6.584695628280839, 157, 38.253513689473536, 162, 11.973087966864211]
# enhanced image entropy
6.446169417358576
original entropy, quality : 6.674999866276089, 7.497898365149789
he enhanced entropy, quality : 6.665228314545874, 7.802556191455845
# history
run 1
[96, 8, 128, 32, 160, 8], 4.601837382702725
[96, 8, 128, 32, 160, 8], 4.601837382702725
[98, 8, 135, 32, 161, 8], 5.193865562546227
[96, 11.041206978301728, 128, 34.809872536657316, 160, 9.018680102262666], 5.293571410242219
[96, 13.31215084186608, 130, 34.33574581527533, 161, 7.546642000066628], 5.312097558898571
[96, 11.041206978301728, 132, 34.08597584259951, 160, 8], 5.403709708579911
[102, 12.92416209026711, 134, 33.61800000073693, 160, 8], 5.522327025882313
[95, 8, 133, 35.03202983771462, 158, 7.01554588723512], 5.647974652503496
[95, 8, 133, 39.49876414569815, 159, 10.881233614509783], 6.200018652886385
[95, 8, 133, 39.49876414569815, 159, 10.881233614509783], 6.200018652886385
[94, 8, 137, 39.49876414569815, 159, 10.881233614509783], 6.5108759308193935
[94, 8, 137, 39.49876414569815, 159, 10.881233614509783], 6.5108759308193935
[95, 2.138749472328341, 139, 39.747235938686316, 161, 8], 6.684895783972394
[95, 2.138749472328341, 139, 39.747235938686316, 161, 8], 6.684895783972394
[92, 0.0589362228737329, 143, 38.61565967148921, 158, 7.786071579943346], 6.833518444707317
[107, 16.569795758591752, 147, 38.61565967148921, 156, 7.314376205872614], 6.9278863107763735
[107, 16.569795758591752, 147, 38.61565967148921, 156, 11.307609415419364], 6.938172970555325
[107, 16.569795758591752, 147, 38.61565967148921, 156, 11.307609415419364], 6.938172970555325
[107, 16.569795758591752, 147, 38.61565967148921, 156, 11.307609415419364], 6.938172970555325
[107, 16.569795758591752, 147, 38.61565967148921, 156, 11.307609415419364], 6.938172970555325
[104, 16.569795758591752, 151, 38.61565967148921, 159, 7.314376205872614], 6.971577323602536
[104, 16.569795758591752, 151, 38.61565967148921, 159, 7.314376205872614], 6.971577323602536
run 2
[96, 8, 128, 32, 160, 8], 4.601837382702725
[96, 8, 128, 32, 160, 8], 4.601837382702725
[96, 7.507153937121923, 128, 36.865934928646794, 160, 8], 5.6499929060283804
[96, 7.507153937121923, 128, 36.83157959060046, 160, 9.000347595417098], 5.669263027805034
[96, 8, 132, 36.83157959060046, 165, 9.000347595417098], 5.938547029085158
[96, 8, 132, 36.83157959060046, 165, 9.000347595417098], 5.938547029085158
[95, 9.027356111596417, 135, 36.83157959060046, 163, 9.000347595417098], 6.145958874812356
[95, 9.027356111596417, 135, 36.83157959060046, 160, 9.000347595417098], 6.164903648104037
[102, 8, 139, 36.83157959060046, 160, 9.000347595417098], 6.608889192738216
[102, 8, 139, 36.83157959060046, 160, 9.000347595417098], 6.608889192738216
[96, 8.194238492854316, 145, 34.70704117500587, 163, 11.238054040409402], 6.625264315643703
[96, 8.194238492854316, 145, 34.70704117500587, 163, 11.238054040409402], 6.625264315643703
[92, 9.027356111596417, 138, 42.13498616471769, 158, 9.699261573694995], 6.872667765632438
[92, 9.027356111596417, 138, 42.13498616471769, 158, 9.699261573694995], 6.872667765632438
[92, 9.027356111596417, 138, 42.13498616471769, 158, 9.699261573694995], 6.872667765632438
[99, 12.363834687780022, 138, 42.13498616471769, 158, 13.06991145923066], 6.933121288737485
[99, 12.363834687780022, 138, 42.13498616471769, 158, 13.06991145923066], 6.933121288737485
[91, 5.235116107463399, 148, 36.83157959060046, 154, 9.699261573694995], 6.9552727070799545
[101, 4.728795484388325, 148, 36.83157959060046, 154, 10.75210770227954], 6.956336862436623
[96, 12.363834687780022, 148, 36.83157959060046, 155, 13.06991145923066], 6.958835162481385
[99, 12.05643335884534, 148, 36.83157959060046, 154, 10.547868340932848], 6.972980730951937
[99, 12.05643335884534, 148, 36.83157959060046, 154, 10.547868340932848], 6.972980730951937
run 3
[96, 8, 128, 32, 160, 8], 4.601837382702725
[96, 8, 128, 32, 160, 8], 4.601837382702725
[103, 8, 135, 32, 160, 8], 5.243481314717204
[103, 8, 135, 32, 160, 8], 5.243481314717204
[96, 6.556134476102252, 142, 32, 163, 8], 5.687334905030622
[96, 6.556134476102252, 142, 32, 163, 8], 5.687334905030622
[96, 6.584695628280839, 142, 34.31380432406485, 163, 11.308708168912185], 6.202958551951068
[96, 6.584695628280839, 147, 34.31380432406485, 160, 8], 6.665814220266039
[96, 6.584695628280839, 147, 34.31380432406485, 159, 10.067607430634288], 6.741752567389012
[96, 6.584695628280839, 147, 34.31380432406485, 159, 10.067607430634288], 6.741752567389012
[96, 6.584695628280839, 147, 34.31380432406485, 159, 10.067607430634288], 6.741752567389012
[95, 6.808932326441093, 147, 36.570042251066205, 163, 11.620872456611437], 6.755122857726906
[95, 6.808932326441093, 147, 36.570042251066205, 163, 11.620872456611437], 6.755122857726906
[99, 6.808932326441093, 147, 36.570042251066205, 163, 11.620872456611437], 6.794052866766686
[95, 6.808932326441093, 147, 36.91299286646916, 163, 11.620872456611437], 6.866459044711699
[95, 6.808932326441093, 147, 36.91299286646916, 163, 11.620872456611437], 6.866459044711699
[95, 6.808932326441093, 147, 36.91299286646916, 163, 11.620872456611437], 6.866459044711699
[98, 6.458733616868747, 147, 39.10308287019731, 159, 10.067607430634288], 7.025404206545107
[94, 7.97436184864861, 154, 36.570042251066205, 159, 11.766529343493305], 7.060515716150336
[95, 6.584695628280839, 154, 36.570042251066205, 159, 9.631335545571748], 7.097726882616141
[96, 6.584695628280839, 157, 38.253513689473536, 162, 11.973087966864211], 7.196229069959145
[96, 6.584695628280839, 157, 38.253513689473536, 162, 11.973087966864211], 7.196229069959145
run 4
[96, 8, 128, 32, 160, 8], 4.601837382702725
[96, 8, 128, 32, 160, 8], 4.601837382702725
[97, 8, 133, 32, 156, 8], 5.082102328629592
[104, 8, 134, 32, 159, 8], 5.121490129948098
[96, 7.1699143115838275, 127, 35.55360669546255, 160, 8.225955827519416], 5.287226029931082
[98, 8, 131, 36.474048078242625, 162, 7.754757512339609], 5.778213468538199
[94, 8, 131, 36.474048078242625, 162, 7.754757512339609], 5.791286234995016
[94, 8, 131, 36.474048078242625, 162, 7.754757512339609], 5.791286234995016
[96, 8, 128, 38.45847856687779, 159, 8], 5.946892568209174
[91, 4.420430619011105, 131, 39.50641538663815, 161, 8.05059850655403], 6.389664830957103
[104, 9.058130812310303, 131, 39.50641538663815, 161, 8.05059850655403], 6.476692927230496
[104, 9.058130812310303, 131, 39.50641538663815, 161, 8.05059850655403], 6.476692927230496
[96, 7.023268821562612, 136, 37.90365155149053, 161, 7.751559379230795], 6.516419885819162
[96, 9.037273575941818, 136, 37.90365155149053, 158, 7.16562687666516], 6.578322934450723
[86, 6.072773247854199, 135, 43.181658494760356, 155, 10.3977588838646], 6.764990418469623
[99, 8, 130, 47.267635729337876, 155, 10.175857122941377], 6.854897182192696
[99, 11.136841860891604, 130, 47.267635729337876, 154, 10.841239107263364], 6.864754620517174
[91, 4.420430619011105, 130, 47.267635729337876, 154, 10.841239107263364], 6.868022869450788
[91, 4.833905663024493, 140, 43.181658494760356, 159, 8.05059850655403], 6.876300383908132
[99, 11.136841860891604, 130, 47.267635729337876, 155, 11.19329825677201], 6.889945731622662
[93, 5.73821951896541, 143, 43.181658494760356, 157, 10.3977588838646], 6.915350707890328
[93, 5.73821951896541, 143, 43.181658494760356, 157, 10.3977588838646], 6.915350707890328
