# num of test, generation, neighborhood size
4 20 10
# image width height
640 480
# image entropy
6.11671376475492
# avg. time
56.5778124332428s
# best fitness in each run
7.1803888048952 7.158233458555047 7.1629997211677106 7.145907610681451 
# avg. std. deviation of best fitness
7.161882398824853 0.012371783381727952
# best solution
[110, 8.05584365478922, 158, 34.28639184669466, 166, 17.494027944545984]
# enhanced image entropy
6.057621349314971
original entropy, quality : 6.11671376475492, 7.082863014338141
he enhanced entropy, quality : 5.897027346020423, 7.233987258545426
# history
run 1
[96, 8, 128, 32, 160, 8], 5.298954651481416
[96, 8, 128, 32, 160, 8], 5.298954651481416
[100, 8, 133, 32, 160, 8], 5.862479747457768
[100, 8, 133, 33.53580421262938, 160, 6.959310542400097], 6.033753591630127
[98, 8, 138, 32, 154, 8], 6.314820958809378
[98, 8, 138, 32, 154, 8], 6.314820958809378
[92, 6.143519506046362, 145, 32, 163, 9.142100032348887], 6.732448149900601
[92, 6.143519506046362, 145, 35.470106827004166, 163, 10.457367328598632], 6.905181091851951
[91, 8, 145, 35.470106827004166, 158, 10.457367328598632], 6.90931905085867
[91, 8, 145, 35.470106827004166, 158, 10.457367328598632], 6.90931905085867
[104, 8, 145, 35.470106827004166, 157, 11.007272041467402], 6.93149687388058
[104, 8, 145, 35.470106827004166, 157, 11.007272041467402], 6.93149687388058
[86, 6.143519506046362, 151, 35.470106827004166, 159, 9.142100032348887], 7.0355537019371255
[95, 6.683252697907267, 147, 36.258821804140254, 159, 14.0929194095911], 7.060828571328514
[106, 8, 145, 38.38275918965086, 165, 14.504841430981305], 7.11887016930427
[100, 8.05584365478922, 148, 35.470106827004166, 165, 14.736862604033973], 7.1400254793964635
[98, 13.24265044298777, 151, 37.34938488824092, 168, 15.37604939675122], 7.171147491503258
[98, 13.24265044298777, 151, 37.34938488824092, 168, 15.37604939675122], 7.171147491503258
[98, 13.24265044298777, 151, 37.34938488824092, 168, 15.37604939675122], 7.171147491503258
[104, 8.05584365478922, 154, 34.28639184669466, 165, 14.736862604033973], 7.179999467234069
[110, 8.05584365478922, 158, 34.28639184669466, 166, 17.494027944545984], 7.1803888048952
[110, 8.05584365478922, 158, 34.28639184669466, 166, 17.494027944545984], 7.1803888048952
run 2
[96, 8, 128, 32, 160, 8], 5.298954651481416
[96, 8, 128, 32, 160, 8], 5.298954651481416
[96, 8.27291261686158, 128, 33.739122265744264, 160, 8.311018164969264], 5.676271072715573
[102, 8, 133, 32, 159, 8], 5.869388183229293
[100, 9.142725585288503, 133, 32.47621373308676, 164, 8], 5.9629322790077515
[103, 8, 136, 32, 162, 8], 6.152511108838331
[101, 9.142725585288503, 140, 32.47621373308676, 158, 8], 6.449755324718543
[101, 9.96886745180347, 140, 32.47621373308676, 164, 9.522925188539263], 6.508086659454163
[103, 8, 133, 38.0872869954917, 158, 10.333672474913062], 6.543689990534139
[94, 6.3463127592467306, 140, 33.81759556936642, 160, 9.04820505266919], 6.590535975421816
[104, 9.139747676480786, 148, 32, 162, 8], 6.921379520009481
[104, 9.139747676480786, 148, 32, 162, 8], 6.921379520009481
[104, 9.139747676480786, 148, 32, 162, 8], 6.921379520009481
[104, 9.92132032409934, 148, 32, 160, 9.04820505266919], 6.936640121223306
[104, 9.92132032409934, 148, 32, 160, 9.04820505266919], 6.936640121223306
[94, 8, 151, 33.81759556936642, 155, 9.929996285176196], 7.050041012009169
[98, 7.387442583700154, 152, 32, 156, 8.318593009957398], 7.07390675381248
[110, 9.139747676480786, 155, 32, 165, 8.424398175403553], 7.129944140003401
[110, 9.139747676480786, 155, 32.2627381389611, 158, 14.302339943879058], 7.156890795287993
[110, 9.139747676480786, 155, 32.2627381389611, 158, 14.391283208949854], 7.158233458555047
[110, 9.139747676480786, 155, 32.2627381389611, 158, 14.391283208949854], 7.158233458555047
[110, 9.139747676480786, 155, 32.2627381389611, 158, 14.391283208949854], 7.158233458555047
run 3
[96, 8, 128, 32, 160, 8], 5.298954651481416
[96, 8, 128, 32, 160, 8], 5.298954651481416
[93, 8, 132, 32, 164, 8], 5.697682845307643
[97, 8.739609869547031, 128, 35.001616791574236, 160, 12.356106851594394], 5.947654603204649
[96, 11.337852845059519, 132, 34.14253647911151, 164, 6.425020523227552], 6.025627657515619
[89, 10.528577563913146, 132, 35.03909246063908, 160, 7.4207949641050215], 6.176124718255543
[89, 10.528577563913146, 132, 35.03909246063908, 164, 8], 6.182323654260389
[99, 11.337852845059519, 137, 34.14253647911151, 160, 12.888142826424891], 6.520291946636647
[99, 11.337852845059519, 137, 34.14253647911151, 160, 14.229199297340688], 6.540818873879068
[100, 8, 142, 34.14253647911151, 160, 12.888142826424891], 6.749297049485304
[100, 8.894478359597557, 142, 34.14253647911151, 160, 12.20989607986887], 6.812032315004396
[100, 8.894478359597557, 142, 34.14253647911151, 160, 12.20989607986887], 6.812032315004396
[90, 8, 148, 34.14253647911151, 153, 12.356106851594394], 6.99781100307662
[95, 8, 148, 34.14253647911151, 153, 12.356106851594394], 7.006431515614966
[100, 8, 148, 34.14253647911151, 163, 12.888142826424891], 7.04496464250426
[99, 7.245335111396054, 149, 37.496456723784945, 163, 12.888142826424891], 7.10642691649738
[100, 8.36707020750669, 152, 34.14253647911151, 159, 14.229199297340688], 7.136871163573067
[100, 8.36707020750669, 152, 34.14253647911151, 159, 15.640990246891525], 7.146170318090584
[103, 8, 152, 34.14253647911151, 159, 15.640990246891525], 7.146378671156241
[105, 8.36707020750669, 154, 34.14253647911151, 161, 15.640990246891525], 7.1629997211677106
[105, 8.36707020750669, 154, 34.14253647911151, 161, 15.640990246891525], 7.1629997211677106
[105, 8.36707020750669, 154, 34.14253647911151, 161, 15.640990246891525], 7.1629997211677106
run 4
[96, 8, 128, 32, 160, 8], 5.298954651481416
[96, 8, 128, 32, 160, 8], 5.298954651481416
[96, 8, 128, 35.77132110212273, 160, 10.134368718990657], 6.0096351147481295
[96, 8, 128, 35.77132110212273, 160, 11.587793388138135], 6.0271828878817955
[96, 8, 130, 35.77132110212273, 156, 10.134368718990657], 6.1683054771870784
[96, 9.963721568000713, 132, 35.77132110212273, 160, 11.587793388138135], 6.337582775985076
[96, 9.963721568000713, 132, 35.77132110212273, 160, 11.587793388138135], 6.337582775985076
[96, 8.506741399991649, 132, 37.309122911298076, 160, 12.090285634389119], 6.486607263188871
[96, 8, 137, 35.77132110212273, 161, 11.500996919837897], 6.610037602611703
[100, 8, 138, 36.86900395594125, 160, 8], 6.6239423928298375
[95, 13.181091289918822, 138, 35.77132110212273, 160, 12.22108187125904], 6.683878523944352
[97, 8, 140, 37.309122911298076, 160, 15.763962203724969], 6.845744216813348
[97, 8, 140, 37.309122911298076, 160, 15.763962203724969], 6.845744216813348
[96, 9.026833629866665, 145, 35.98963351072397, 155, 6.58559629998345], 6.891047420901499
[96, 9.026833629866665, 145, 35.98963351072397, 155, 6.58559629998345], 6.891047420901499
[96, 9.026833629866665, 145, 35.98963351072397, 155, 6.58559629998345], 6.891047420901499
[101, 7.126017131224532, 145, 36.86900395594125, 160, 13.294071991354812], 7.011304464727624
[101, 7.126017131224532, 145, 36.86900395594125, 160, 13.294071991354812], 7.011304464727624
[97, 9.963721568000713, 147, 34.80708894197562, 160, 19.052680310985888], 7.108566696295332
[99, 12.506727584374204, 147, 34.80708894197562, 156, 19.052680310985888], 7.110020721587413
[97, 11.24604014549865, 150, 35.44441497818489, 159, 17.297768079401827], 7.145907610681451
[97, 11.24604014549865, 150, 35.44441497818489, 159, 17.297768079401827], 7.145907610681451
