# num of test, generation, neighborhood size
4 20 10
# image width height
253 199
# image entropy
4.70473184323804
# avg. time
12.992655277252197s
# best fitness in each run
3.7557527058384808 4.0274216978969095 3.7993666905147174 3.877803764808768 
# avg. std. deviation of best fitness
3.8650862147647187 0.1034255979009246
# best solution
[101, 8.9595503794188, 156, 40.68688179725768, 161, 6.756191905735285]
# enhanced image entropy
4.099357361726554
original entropy, quality : 4.70473184323804, 4.638721894753594
he enhanced entropy, quality : 4.542477381858238, 4.798899206301973
# history
run 1
[96, 8, 128, 32, 160, 8], 1.0863202042176052
[96, 8, 128, 32, 160, 8], 1.0863202042176052
[96, 4.387974212720315, 128, 35.45228369628642, 160, 7.272557156439382], 1.4745966213625699
[96, 6.504992666408928, 128, 36.40946128083241, 160, 5.572989200796264], 1.6675893406372035
[96, 6.504992666408928, 128, 36.40946128083241, 160, 5.572989200796264], 1.6675893406372035
[96, 8.290446539063751, 128, 37.95965353406396, 160, 9.653124861680546], 2.0746551408228653
[98, 11.441902367037049, 136, 36.80684880635072, 159, 8], 2.7067832701594363
[98, 11.441902367037049, 136, 36.80684880635072, 159, 8], 2.7067832701594363
[99, 8.824218784285526, 129, 39.65529626855902, 155, 16.1827292587526], 2.8985532371020297
[98, 11.441902367037049, 136, 37.970570134567666, 159, 5.279564731613114], 3.0904684779784253
[97, 6.322276992002555, 133, 41.47078431069257, 158, 9.112971725534377], 3.1938345845680063
[98, 11.441902367037049, 136, 40.8435432643837, 143, 6.575414306042819], 3.316831785382033
[98, 11.104100430431885, 136, 41.03455387336548, 159, 8.435032488565868], 3.3992539436259563
[98, 11.104100430431885, 136, 41.03455387336548, 159, 8.435032488565868], 3.3992539436259563
[98, 11.104100430431885, 136, 41.03455387336548, 159, 8.435032488565868], 3.3992539436259563
[98, 11.104100430431885, 136, 41.03455387336548, 159, 8.435032488565868], 3.3992539436259563
[98, 14.041985501850792, 140, 41.47078431069257, 158, 9.835370868931713], 3.549802796893809
[98, 14.041985501850792, 140, 41.47078431069257, 158, 9.835370868931713], 3.549802796893809
[96, 14.041985501850792, 145, 41.47078431069257, 163, 8.008911993469013], 3.7557527058384808
[96, 14.041985501850792, 145, 41.47078431069257, 163, 8.008911993469013], 3.7557527058384808
[96, 14.041985501850792, 145, 41.47078431069257, 163, 8.008911993469013], 3.7557527058384808
[96, 14.041985501850792, 145, 41.47078431069257, 163, 8.008911993469013], 3.7557527058384808
run 2
[96, 8, 128, 32, 160, 8], 1.0863202042176052
[96, 8, 128, 32, 160, 8], 1.0863202042176052
[96, 8, 128, 34.453940063762815, 160, 8], 1.311809491707109
[100, 8, 134, 35.27640383325319, 160, 8], 1.8880770053143767
[100, 8, 134, 35.27640383325319, 160, 8], 1.8880770053143767
[100, 8, 134, 35.27640383325319, 162, 8], 1.8898597359433373
[96, 6.318930696362125, 128, 38.92549465065929, 160, 11.139656102855303], 2.4098377034779417
[96, 4.735263378194295, 134, 36.7724865171765, 160, 6.187203586323885], 2.421684455131545
[96, 8, 132, 38.92549465065929, 159, 8], 2.9314531454501522
[100, 8, 144, 35.27640383325319, 160, 6.756191905735285], 3.1582269116844377
[100, 8, 144, 35.27640383325319, 160, 6.756191905735285], 3.1582269116844377
[100, 8, 144, 35.27640383325319, 160, 6.756191905735285], 3.1582269116844377
[96, 9.576682566166433, 150, 35.27640383325319, 160, 6.756191905735285], 3.234984763858192
[101, 7.288078679872245, 144, 38.26488882541417, 159, 11.262923147902601], 3.494387493509102
[101, 7.288078679872245, 144, 38.26488882541417, 159, 11.262923147902601], 3.494387493509102
[96, 6.397381051650125, 150, 40.68688179725768, 160, 6.756191905735285], 3.7481766116652384
[101, 8.630427169823191, 150, 40.68688179725768, 160, 6.756191905735285], 3.751387512656902
[101, 8.630427169823191, 151, 40.68688179725768, 156, 10.585709526028127], 3.949088037599327
[107, 6.465556672657038, 151, 40.68688179725768, 161, 6.756191905735285], 3.9538473052578245
[99, 4.713310632141118, 151, 40.68688179725768, 165, 10.108988625130358], 3.969924861529321
[101, 8.9595503794188, 156, 40.68688179725768, 161, 6.756191905735285], 4.0274216978969095
[101, 8.9595503794188, 156, 40.68688179725768, 161, 6.756191905735285], 4.0274216978969095
run 3
[96, 8, 128, 32, 160, 8], 1.0863202042176052
[96, 8, 128, 32, 160, 8], 1.0863202042176052
[96, 7.469404486543185, 128, 37.425191185365, 160, 7.155299785801491], 1.9351804848531202
[96, 8, 128, 37.425191185365, 160, 8.171738488129147], 1.9379714735850218
[91, 8, 128, 39.1444021979151, 160, 8], 2.5143995404014645
[91, 8, 128, 39.1444021979151, 160, 8], 2.5143995404014645
[96, 12.978992074851147, 131, 38.62065909062326, 161, 7.240404320829655], 2.7117797748862396
[96, 8.748699702484906, 128, 42.46866544211401, 157, 7.392673600234403], 2.8322058294135846
[94, 8.177415079529828, 129, 39.80038441545894, 160, 8.02063899258175], 2.900437377797541
[96, 8.748699702484906, 128, 43.12750887090491, 157, 5.32014226058795], 3.1185334741445137
[96, 8.748699702484906, 128, 43.12750887090491, 157, 5.32014226058795], 3.1185334741445137
[96, 8.748699702484906, 128, 43.12750887090491, 157, 5.32014226058795], 3.1185334741445137
[96, 12.354913311455027, 128, 47.789482724361086, 161, 8.950124950701822], 3.5704856575707025
[96, 12.354913311455027, 128, 47.789482724361086, 161, 8.950124950701822], 3.5704856575707025
[96, 12.354913311455027, 128, 47.789482724361086, 161, 8.950124950701822], 3.5704856575707025
[96, 12.354913311455027, 128, 47.789482724361086, 161, 8.950124950701822], 3.5704856575707025
[91, 13.075982161779903, 133, 47.64865067315283, 159, 11.921893054181819], 3.7865620434099836
[91, 13.075982161779903, 133, 47.64865067315283, 159, 11.921893054181819], 3.7865620434099836
[91, 13.075982161779903, 133, 47.64865067315283, 159, 11.921893054181819], 3.7865620434099836
[91, 13.075982161779903, 133, 47.64865067315283, 159, 11.921893054181819], 3.7865620434099836
[91, 15.728395765126708, 133, 47.64865067315283, 159, 14.894302606800112], 3.7993666905147174
[91, 15.728395765126708, 133, 47.64865067315283, 159, 14.894302606800112], 3.7993666905147174
run 4
[96, 8, 128, 32, 160, 8], 1.0863202042176052
[96, 8, 128, 32, 160, 8], 1.0863202042176052
[96, 8.154400329831489, 128, 35.19803595538486, 160, 8], 1.4324085013200327
[96, 8.154400329831489, 132, 35.19803595538486, 163, 8], 1.6911255958126308
[96, 6.906363284606631, 128, 38.84560669282664, 160, 8], 2.3974638454711616
[98, 8, 129, 38.84560669282664, 163, 8], 2.523394991864153
[94, 8.026911316093182, 132, 37.6854862586271, 160, 6.425189044435322], 2.5264715123253456
[100, 7.187153388469967, 129, 39.70749314647139, 163, 8], 2.9029919384866316
[102, 8, 132, 38.84560669282664, 163, 8], 2.9258449423370116
[102, 8, 132, 38.84560669282664, 163, 8], 2.9258449423370116
[101, 6.001197626535237, 132, 41.77747955574896, 161, 2.0339280706417755], 3.158766477130758
[98, 8, 133, 41.610545435267994, 162, 8], 3.2344027821676775
[103, 3.7913789794191737, 133, 41.77747955574896, 161, 2.0339280706417755], 3.2611246718500717
[103, 3.7913789794191737, 133, 41.77747955574896, 161, 2.0339280706417755], 3.2611246718500717
[103, 3.7913789794191737, 133, 41.77747955574896, 161, 2.0339280706417755], 3.2611246718500717
[104, 3.7913789794191737, 133, 41.77747955574896, 155, 8.676133592330398], 3.2856425247744965
[107, 11.364511848773574, 137, 45.267252828333945, 164, 7.929747985540806], 3.424616862551662
[107, 11.288892042663068, 137, 44.496030104825806, 152, 9.547178415304733], 3.6593825711356547
[98, 5.4774540839792465, 133, 49.07928277065005, 162, 6.657686033789122], 3.801782039763567
[97, 9.62086989197756, 137, 48.8206049395165, 172, 2.959041621060837], 3.873215984970767
[97, 9.62086989197756, 137, 48.8206049395165, 172, 3.1434342992820907], 3.877803764808768
[97, 9.62086989197756, 137, 48.8206049395165, 172, 3.1434342992820907], 3.877803764808768
