# num of test, generation, neighborhood size
4 20 10
# image width height
512 512
# image entropy
7.236707812803108
# avg. time
65.78681844472885s
# best fitness in each run
8.373695229153316 8.366027118282535 8.339449252279742 8.375403320515927 
# avg. std. deviation of best fitness
8.36364373005788 0.014408104457151735
# best solution
[82, 9.209234962664658, 113, 35.48451764337955, 150, 21.35645841713396]
# enhanced image entropy
6.85904960956135
original entropy, quality : 7.236707812803108, 9.014795507616746
he enhanced entropy, quality : 7.154494630577338, 9.14707315229908
# history
run 1
[96, 8, 128, 32, 160, 8], 7.221256395844595
[96, 8, 128, 32, 160, 8], 7.221256395844595
[96, 8, 128, 34.81091286753193, 160, 8], 7.664563798016771
[96, 8, 128, 34.81091286753193, 160, 8], 7.664563798016771
[96, 8.755295168965239, 129, 34.66069224919609, 160, 8.902763053405167], 7.680253719364943
[96, 10.735028460105669, 124, 32.941328171255265, 159, 8], 7.727466836771022
[95, 8, 118, 32.83301890326163, 156, 8.902763053405167], 7.91106467576816
[96, 6.434812915192132, 117, 34.81091286753193, 160, 9.766147603269454], 7.937072193860847
[96, 10.867083314523065, 123, 32.30561747901542, 155, 12.024076941388234], 7.979186839095966
[97, 10.551175409984449, 115, 35.300837112817455, 156, 11.298582413190505], 8.118966894849093
[97, 10.551175409984449, 115, 35.300837112817455, 156, 11.298582413190505], 8.118966894849093
[97, 8, 117, 36.37613679790772, 151, 12.199412071868633], 8.200135691905054
[97, 8, 117, 36.37613679790772, 151, 12.199412071868633], 8.200135691905054
[95, 11.912731541934459, 115, 35.300837112817455, 160, 18.916139895669037], 8.289816510691873
[95, 11.912731541934459, 115, 35.300837112817455, 160, 18.916139895669037], 8.289816510691873
[95, 11.912731541934459, 109, 35.300837112817455, 160, 18.916139895669037], 8.291783172944676
[95, 11.912731541934459, 109, 35.300837112817455, 160, 18.916139895669037], 8.291783172944676
[95, 11.912731541934459, 109, 35.300837112817455, 160, 18.916139895669037], 8.291783172944676
[95, 9.543270765692046, 117, 37.83405934386912, 160, 19.986510695485777], 8.307125888041387
[94, 9.720578407955102, 112, 35.300837112817455, 161, 20.695012771985716], 8.335671560829226
[89, 13.925027230365231, 109, 35.75137606106664, 153, 17.516672615181186], 8.373695229153316
[89, 13.925027230365231, 109, 35.75137606106664, 153, 17.516672615181186], 8.373695229153316
run 2
[96, 8, 128, 32, 160, 8], 7.221256395844595
[96, 8, 128, 32, 160, 8], 7.221256395844595
[96, 12.88266487982164, 128, 33.69783423956092, 160, 8], 7.6278761157437245
[96, 12.88266487982164, 128, 33.69783423956092, 160, 8], 7.6278761157437245
[96, 8, 128, 34.247296672902436, 160, 11.747981978976618], 7.79021913817891
[96, 8, 126, 36.75108337167959, 155, 6.989607927973702], 7.797098992048875
[101, 12.055747690445175, 126, 36.75108337167959, 155, 10.149979682441986], 7.930750051040281
[101, 12.055747690445175, 126, 36.75108337167959, 160, 13.412693540963408], 7.949197800783526
[100, 7.9704572013786, 123, 36.75108337167959, 160, 13.412693540963408], 7.984632622124006
[90, 12.88266487982164, 116, 32, 157, 11.747981978976618], 8.029930455898034
[96, 8.394095157408339, 123, 36.75108337167959, 155, 12.888213122619508], 8.057156153202053
[101, 12.055747690445175, 120, 38.01785766256231, 158, 15.65232022760467], 8.16333048496548
[101, 12.055747690445175, 120, 38.01785766256231, 158, 15.65232022760467], 8.16333048496548
[101, 12.055747690445175, 120, 38.01785766256231, 158, 15.65232022760467], 8.16333048496548
[100, 7.9704572013786, 112, 37.54589668631096, 152, 13.434314207752784], 8.17731553211547
[92, 10.429207769115052, 117, 36.75108337167959, 157, 13.509990864005252], 8.23299115862387
[91, 10.429207769115052, 117, 36.75108337167959, 157, 13.509990864005252], 8.233812256641373
[97, 12.055747690445175, 116, 37.54589668631096, 142, 13.412693540963408], 8.253567574160863
[92, 12.055747690445175, 117, 36.258674896296085, 142, 15.397745936743366], 8.366027118282535
[92, 12.055747690445175, 117, 36.258674896296085, 142, 15.397745936743366], 8.366027118282535
[92, 12.055747690445175, 117, 36.258674896296085, 142, 15.397745936743366], 8.366027118282535
[92, 12.055747690445175, 117, 36.258674896296085, 142, 15.397745936743366], 8.366027118282535
run 3
[96, 8, 128, 32, 160, 8], 7.221256395844595
[96, 8, 128, 32, 160, 8], 7.221256395844595
[96, 8.423249400031434, 128, 31.005693081050953, 160, 12.1377902051625], 7.6690376980977035
[96, 7.792616676965414, 124, 34.971359218433385, 160, 11.736297864122042], 7.903984448398166
[96, 7.792616676965414, 124, 34.971359218433385, 160, 11.736297864122042], 7.903984448398166
[93, 8, 124, 34.971359218433385, 157, 11.736297864122042], 7.926504898361805
[95, 8, 124, 34.971359218433385, 157, 11.736297864122042], 7.935541831503118
[97, 8, 122, 34.971359218433385, 159, 14.378011566289645], 7.995869092847573
[96, 8.85202781492952, 121, 34.765810649012394, 160, 11.736297864122042], 8.048496387007626
[97, 8, 124, 34.93820387766927, 156, 15.804419187946738], 8.066777596874322
[92, 8, 116, 33.78640498336943, 159, 16.71844232491376], 8.13652867462447
[92, 8, 116, 33.78640498336943, 159, 16.71844232491376], 8.13652867462447
[92, 8, 116, 33.78640498336943, 159, 16.71844232491376], 8.13652867462447
[94, 8.398070465032344, 113, 35.5214444582773, 156, 13.37131666557564], 8.18032526581533
[94, 8.398070465032344, 113, 38.307699653096606, 156, 15.804419187946738], 8.184274251574829
[94, 8.79836868294226, 121, 37.38113985943869, 153, 17.586375936175486], 8.194811897305657
[96, 8.398070465032344, 111, 35.5214444582773, 158, 17.118285138055157], 8.277559126483528
[95, 9.267154762599073, 110, 36.2843931597816, 159, 19.71169359731206], 8.339449252279742
[95, 9.267154762599073, 110, 36.2843931597816, 159, 19.71169359731206], 8.339449252279742
[95, 9.267154762599073, 110, 36.2843931597816, 159, 19.71169359731206], 8.339449252279742
[95, 9.267154762599073, 110, 36.2843931597816, 159, 19.71169359731206], 8.339449252279742
[95, 9.267154762599073, 110, 36.2843931597816, 159, 19.71169359731206], 8.339449252279742
run 4
[96, 8, 128, 32, 160, 8], 7.221256395844595
[96, 8, 128, 32, 160, 8], 7.221256395844595
[96, 8, 128, 33.776020423407665, 160, 8], 7.557836835967269
[96, 8, 128, 38.08285319967473, 160, 8], 7.635749375347489
[97, 9.316620177547593, 130, 38.08285319967473, 160, 8], 7.77347917937648
[96, 6.647079210335972, 128, 41.457548260619326, 155, 8], 7.830266906543073
[94, 8, 125, 37.80515300030549, 160, 9.898948169008648], 7.88645768792078
[100, 8, 121, 33.776020423407665, 146, 8], 7.9548344467428915
[96, 8, 118, 35.28427121389, 161, 13.750877598396508], 8.107074992863081
[96, 8, 118, 35.28427121389, 161, 13.750877598396508], 8.107074992863081
[96, 8, 118, 35.28427121389, 161, 13.750877598396508], 8.107074992863081
[94, 8, 123, 41.797025066118934, 153, 16.388296175566634], 8.150958694448798
[94, 8, 123, 41.797025066118934, 153, 16.388296175566634], 8.150958694448798
[94, 8, 123, 41.797025066118934, 153, 16.388296175566634], 8.150958694448798
[90, 7.151913355762435, 120, 39.4832266858092, 154, 15.728402117047946], 8.208997710127981
[94, 7.713100546093214, 123, 41.797025066118934, 153, 21.35645841713396], 8.284748000817464
[94, 7.713100546093214, 113, 35.48451764337955, 153, 21.35645841713396], 8.37367890443776
[94, 7.713100546093214, 113, 35.48451764337955, 153, 21.35645841713396], 8.37367890443776
[94, 7.713100546093214, 113, 35.48451764337955, 153, 21.35645841713396], 8.37367890443776
[94, 7.713100546093214, 113, 35.48451764337955, 153, 21.35645841713396], 8.37367890443776
[82, 9.209234962664658, 113, 35.48451764337955, 150, 21.35645841713396], 8.375403320515927
[82, 9.209234962664658, 113, 35.48451764337955, 150, 21.35645841713396], 8.375403320515927
