# num of test, generation, neighborhood size
4 25 10
# image width height
720 960
# image entropy
6.953708172980524
# avg. time
91.32514488697052s
# best fitness in each run
4.9349675380550595 5.3651425296011 4.579214126887546 5.8174820657508555 
# avg. std. deviation of best fitness
5.17420156507364 0.46408814512142615
# best solution
[82, 12.91835084421899, 130, 46.181555172745426, 160, 14.564775587883101]
# enhanced image entropy
5.335092360086192
original entropy, quality : 6.953708172980524, 8.312790251207593
he enhanced entropy, quality : 6.717357940129492, 8.225081748773318
# history
run 1
[96, 8, 128, 32, 160, 8], 2.729020934839222
[96, 8, 128, 32, 160, 8], 2.729020934839222
[96, 8.447589425028639, 128, 34.329003499545294, 160, 8], 3.3942739232499695
[96, 8.151432285628076, 123, 35.41052915548209, 160, 8], 3.8242652824375774
[96, 8.151432285628076, 123, 35.41052915548209, 160, 8], 3.786800353922829
[95, 12.357465559504424, 128, 35.65324367644571, 156, 9.012384017532415], 3.826094894715302
[95, 12.357465559504424, 128, 35.65324367644571, 156, 9.012384017532415], 3.768166850113221
[96, 8.480077588841489, 128, 36.04448731966835, 161, 5.678106955782194], 3.888511270825274
[96, 8.480077588841489, 128, 36.04448731966835, 161, 5.678106955782194], 3.85959387986956
[94, 5.174224558738139, 129, 37.52844374605913, 155, 8.3834129144078], 4.258558657322716
[94, 5.174224558738139, 129, 38.97491749184219, 155, 8.3834129144078], 4.646723832029397
[94, 10.049675038917302, 129, 38.97491749184219, 155, 9.062288176604735], 4.666958688322284
[94, 10.756870386362408, 129, 39.54890454392137, 157, 9.12073571788677], 4.817731378278613
[92, 14.92301770043296, 129, 39.54890454392137, 157, 9.12073571788677], 4.870356568389357
[92, 14.92301770043296, 129, 39.54890454392137, 157, 9.12073571788677], 4.314668548093056
[92, 14.92301770043296, 129, 39.54890454392137, 157, 9.12073571788677], 4.265191295550218
[92, 14.92301770043296, 129, 39.54890454392137, 157, 9.12073571788677], 4.3389311118067235
[92, 14.92301770043296, 129, 39.54890454392137, 157, 9.12073571788677], 4.333540585727424
[92, 14.92301770043296, 129, 39.54890454392137, 157, 9.12073571788677], 4.412818905645168
[92, 14.92301770043296, 129, 39.54890454392137, 157, 9.12073571788677], 4.184505381020323
[92, 14.92301770043296, 129, 39.54890454392137, 157, 9.12073571788677], 4.046062695472884
[92, 14.92301770043296, 129, 39.54890454392137, 157, 9.12073571788677], 4.206381265617342
[92, 14.92301770043296, 129, 39.54890454392137, 157, 9.12073571788677], 4.324966282792132
[92, 14.92301770043296, 129, 39.54890454392137, 157, 9.12073571788677], 4.208887971685028
[92, 14.92301770043296, 129, 39.54890454392137, 157, 9.12073571788677], 4.800869054805735
[82, 12.482332974739803, 132, 40.478143214904534, 164, 10.523754050934441], 4.9349675380550595
[82, 12.482332974739803, 132, 40.478143214904534, 164, 10.523754050934441], 4.9349675380550595
run 2
[96, 8, 128, 32, 160, 8], 2.729020934839222
[96, 8, 128, 32, 160, 8], 2.729020934839222
[96, 8, 128, 33.69490727764686, 160, 8], 3.2102444507322665
[96, 8, 128, 35.890468266394016, 160, 7.169794877160107], 3.8512225747586375
[96, 8, 128, 35.890468266394016, 157, 6.890278152535616], 3.852909641807613
[96, 5.785508023091252, 122, 36.135207058627806, 160, 9.69551831345342], 4.030930744844968
[96, 7.502106982151591, 122, 36.135207058627806, 160, 15.632350132772732], 4.069672900527125
[93, 7.516238792975242, 122, 36.135207058627806, 160, 15.632350132772732], 4.076792751611329
[93, 7.516238792975242, 122, 36.135207058627806, 160, 15.632350132772732], 4.05088120340676
[93, 7.516238792975242, 122, 36.135207058627806, 160, 15.632350132772732], 3.9575088802634792
[93, 7.516238792975242, 122, 36.135207058627806, 160, 15.632350132772732], 4.004172697671536
[102, 0.006737946999085467, 129, 40.33252796592218, 164, 13.315372652558235], 4.7696266242461896
[102, 0.006737946999085467, 129, 41.172307447639504, 164, 13.835687228624453], 4.955550902822298
[102, 0.006737946999085467, 129, 41.172307447639504, 164, 13.835687228624453], 4.904458623323706
[102, 0.006737946999085467, 129, 41.172307447639504, 164, 13.835687228624453], 4.895943236156537
[102, 1.2860807455140686, 129, 42.90831059322135, 157, 5.153045356904863], 5.3651425296011
[102, 1.2860807455140686, 129, 42.90831059322135, 157, 5.153045356904863], 5.306455754995148
[102, 1.2860807455140686, 129, 42.90831059322135, 157, 5.153045356904863], 4.82276532748659
[102, 1.2860807455140686, 129, 42.90831059322135, 157, 5.153045356904863], 4.610656138141143
[102, 1.2860807455140686, 129, 42.90831059322135, 157, 5.153045356904863], 4.641110677558621
[102, 1.2860807455140686, 129, 42.90831059322135, 157, 5.153045356904863], 4.655356557909718
[102, 1.2860807455140686, 129, 42.90831059322135, 157, 5.153045356904863], 4.648795162425378
[102, 1.2860807455140686, 129, 42.90831059322135, 157, 5.153045356904863], 4.666314425517807
[102, 1.2860807455140686, 129, 42.90831059322135, 157, 5.153045356904863], 4.716141115621325
[102, 1.2860807455140686, 129, 42.90831059322135, 157, 5.153045356904863], 4.980933594247275
[102, 1.2860807455140686, 129, 42.90831059322135, 157, 5.153045356904863], 4.99885166173837
[102, 1.2860807455140686, 129, 42.90831059322135, 157, 5.153045356904863], 5.3651425296011
run 3
[96, 8, 128, 32, 160, 8], 2.729020934839222
[96, 8, 128, 32, 160, 8], 2.729020934839222
[96, 9.859336579172894, 128, 35.939201357847224, 160, 8], 3.8604566871463977
[96, 11.311035668221026, 128, 35.967514705221106, 160, 7.776530548166216], 3.8838127435937633
[96, 11.311035668221026, 128, 35.967514705221106, 160, 7.776530548166216], 3.871763201142758
[96, 11.311035668221026, 128, 35.967514705221106, 160, 7.776530548166216], 3.8618895109986777
[101, 11.189995097127493, 116, 35.47117792700898, 170, 10.045078415858946], 4.012714817926564
[101, 11.556994955506077, 116, 35.47117792700898, 170, 10.045078415858946], 4.015854143006158
[101, 14.102698533222922, 116, 35.35654773977578, 170, 10.251215149577405], 4.021882524607936
[101, 14.102698533222922, 116, 35.35654773977578, 170, 10.251215149577405], 3.957254018051802
[101, 14.102698533222922, 116, 35.35654773977578, 170, 10.251215149577405], 3.9851690815473653
[101, 14.102698533222922, 116, 35.35654773977578, 170, 10.251215149577405], 3.8069975508105522
[101, 14.102698533222922, 116, 35.35654773977578, 170, 10.251215149577405], 3.802243067584011
[101, 14.102698533222922, 116, 35.35654773977578, 170, 10.251215149577405], 3.979749151574828
[91, 11.43747048966821, 108, 34.37018244106967, 163, 3.307909809437728], 4.158789047837406
[91, 11.78273650393747, 108, 34.37018244106967, 163, 9.722814148129135], 4.181803448532573
[91, 11.78273650393747, 108, 34.37018244106967, 163, 9.722814148129135], 3.987763724076946
[104, 10.655619726885487, 133, 38.357603032301654, 160, 6.343955037354178], 4.510981429696675
[104, 10.655619726885487, 133, 38.357603032301654, 160, 6.343955037354178], 4.005056930909549
[104, 10.655619726885487, 133, 38.357603032301654, 160, 6.343955037354178], 3.9747587950502554
[104, 10.655619726885487, 128, 38.67584353641978, 161, 3.307909809437728], 4.521895588562308
[101, 2.984442096287471, 128, 38.67584353641978, 137, 10.917181635294826], 4.566805740201306
[101, 2.984442096287471, 128, 38.67584353641978, 137, 12.240117787578605], 4.579214126887546
[101, 2.984442096287471, 128, 38.67584353641978, 137, 12.240117787578605], 4.490197499130275
[101, 2.984442096287471, 128, 38.67584353641978, 137, 12.240117787578605], 4.497159970297271
[101, 2.984442096287471, 128, 38.67584353641978, 137, 12.240117787578605], 4.37823153531023
[101, 2.984442096287471, 128, 38.67584353641978, 137, 12.240117787578605], 4.579214126887546
run 4
[96, 8, 128, 32, 160, 8], 2.729020934839222
[96, 8, 128, 32, 160, 8], 2.729020934839222
[96, 8, 128, 35.656179682923906, 160, 8], 3.7857904626600014
[96, 11.883684471115787, 128, 37.779727764670994, 156, 8], 4.378838154224494
[90, 11.883684471115787, 128, 37.779727764670994, 156, 8], 4.395652117284588
[96, 7.942701140292245, 128, 38.93734819435741, 160, 7.700264804899552], 4.616159626173471
[96, 7.942701140292245, 128, 38.93734819435741, 160, 7.700264804899552], 4.303948829594068
[96, 7.942701140292245, 128, 38.93734819435741, 160, 7.700264804899552], 4.296723561970281
[89, 6.1026158839841145, 128, 40.785431028119824, 160, 7.578698781589035], 4.875299958752663
[89, 6.1026158839841145, 128, 40.785431028119824, 154, 7.634914288537629], 4.881602054232483
[89, 6.1026158839841145, 128, 40.785431028119824, 154, 7.634914288537629], 4.872936028569124
[89, 6.1026158839841145, 128, 40.785431028119824, 154, 7.634914288537629], 4.878107470531357
[100, 12.18135124409337, 128, 43.06711866244759, 160, 6.848835388797357], 5.325787113806756
[98, 11.540125307467548, 130, 43.06711866244759, 158, 13.169112958805533], 5.540169440208692
[98, 11.540125307467548, 130, 43.06711866244759, 158, 13.169112958805533], 5.506483837924319
[98, 11.540125307467548, 130, 43.06711866244759, 158, 13.169112958805533], 5.510282587379518
[98, 11.540125307467548, 130, 43.06711866244759, 158, 13.169112958805533], 5.513081627144641
[98, 11.540125307467548, 130, 43.06711866244759, 158, 13.169112958805533], 5.473286647931306
[97, 7.651612539618557, 130, 44.74382811112351, 165, 6.593976440775869], 5.5516752961738645
[88, 5.593378793695797, 130, 46.181555172745426, 165, 4.523416268933228], 5.653414250071929
[82, 12.91835084421899, 130, 46.181555172745426, 157, 13.84845145284374], 5.8154904162314995
[82, 12.91835084421899, 130, 46.181555172745426, 157, 13.84845145284374], 5.755138103265371
[82, 12.91835084421899, 130, 46.181555172745426, 160, 14.564775587883101], 5.8174820657508555
[82, 12.91835084421899, 130, 46.181555172745426, 160, 14.564775587883101], 5.729858753391745
[82, 12.91835084421899, 130, 46.181555172745426, 160, 14.564775587883101], 5.715975189377401
[82, 12.91835084421899, 130, 46.181555172745426, 160, 14.564775587883101], 5.698073060904646
[82, 12.91835084421899, 130, 46.181555172745426, 160, 14.564775587883101], 5.8174820657508555
