# num of test, generation, neighborhood size
4 25 10
# image width height
800 679
# image entropy
5.360434598745562
# avg. time
71.14171433448792s
# best fitness in each run
5.146317021569528 5.111560337681827 5.139775446897493 5.138407018041082 
# avg. std. deviation of best fitness
5.1340149560474835 0.013304361741968408
# best solution
[105, 4.297304201841738, 123, 33.53677979965581, 141, 13.205928739223756]
# enhanced image entropy
5.358093842755725
original entropy, quality : 5.360434598745562, 4.822724558523921
he enhanced entropy, quality : 5.33508879505191, 5.384986217682801
# history
run 1
[96, 8, 128, 32, 160, 8], 4.549609126113265
[96, 8, 128, 32, 160, 8], 4.549609126113265
[96, 8, 128, 32, 160, 12.166386465007422], 4.822459614252774
[96, 7.077190413991537, 128, 32, 160, 17.405568794938848], 4.959749150745444
[96, 7.077190413991537, 128, 32, 160, 17.405568794938848], 4.938986683056891
[96, 8.01842813515503, 128, 32, 160, 17.16295983538761], 4.960660278641464
[96, 8.01842813515503, 128, 32, 160, 17.16295983538761], 4.926363553197653
[96, 8.01842813515503, 128, 32, 160, 17.16295983538761], 4.899830311791588
[97, 8.23617863486312, 126, 34.57929431909172, 151, 11.64057299647036], 5.001392812511132
[97, 8.23617863486312, 126, 34.57929431909172, 151, 11.64057299647036], 4.93962350448263
[97, 8.23617863486312, 126, 34.57929431909172, 151, 11.64057299647036], 4.897906832298926
[97, 8.23617863486312, 126, 34.57929431909172, 151, 11.64057299647036], 4.953676901390368
[97, 8.23617863486312, 126, 34.57929431909172, 151, 11.64057299647036], 4.953676901390368
[102, 7.647621261565282, 130, 33.93344501522667, 145, 11.64057299647036], 5.128552443898027
[104, 7.647621261565282, 125, 33.93344501522667, 140, 11.64057299647036], 5.1411416690566885
[104, 7.647621261565282, 125, 33.93344501522667, 140, 11.64057299647036], 5.050981656207851
[104, 7.647621261565282, 125, 33.93344501522667, 140, 11.64057299647036], 5.105159235293968
[104, 7.647621261565282, 125, 33.93344501522667, 140, 11.64057299647036], 5.124669836261318
[104, 7.647621261565282, 125, 33.93344501522667, 140, 11.64057299647036], 5.06311283797098
[104, 7.647621261565282, 125, 33.93344501522667, 140, 11.64057299647036], 5.052262468947286
[104, 7.647621261565282, 125, 33.93344501522667, 140, 11.64057299647036], 5.1299235373741245
[104, 7.647621261565282, 125, 33.93344501522667, 140, 11.64057299647036], 5.070691373158621
[104, 7.647621261565282, 125, 33.93344501522667, 140, 11.64057299647036], 5.09672578674774
[105, 4.297304201841738, 123, 33.53677979965581, 141, 13.205928739223756], 5.146317021569528
[105, 4.297304201841738, 123, 33.53677979965581, 141, 13.205928739223756], 5.047820796165631
[105, 4.297304201841738, 123, 33.53677979965581, 141, 13.205928739223756], 5.029633336182702
[105, 4.297304201841738, 123, 33.53677979965581, 141, 13.205928739223756], 5.146317021569528
run 2
[96, 8, 128, 32, 160, 8], 4.549609126113265
[96, 8, 128, 32, 160, 8], 4.549609126113265
[96, 10.074411767443983, 128, 30.511214127798507, 160, 12.223727344278462], 4.827561010458699
[96, 6.14293320102583, 129, 32, 156, 10.921223972048521], 4.835829268842406
[96, 9.388294277398353, 128, 32.31206279467673, 156, 13.011133181779861], 4.924108751132091
[103, 8.086626316042166, 127, 32.71460927871881, 160, 13.272954481389586], 4.963861277116692
[103, 8.086626316042166, 128, 26.85588014604742, 160, 13.272954481389586], 5.049020172255036
[103, 7.921921754671338, 128, 26.85588014604742, 160, 13.272954481389586], 5.051916368193983
[103, 7.921921754671338, 128, 26.85588014604742, 160, 13.272954481389586], 4.8748268285457685
[103, 7.921921754671338, 128, 26.85588014604742, 160, 13.272954481389586], 4.946752670004467
[103, 7.921921754671338, 128, 26.85588014604742, 160, 13.272954481389586], 5.012072312066498
[103, 7.921921754671338, 128, 26.85588014604742, 160, 13.272954481389586], 5.022682381857824
[105, 5.821293621641685, 134, 24.207164136428577, 147, 7.865597788297617], 5.068215900886646
[105, 5.821293621641685, 134, 24.207164136428577, 147, 7.865597788297617], 4.990896738256386
[105, 5.821293621641685, 134, 24.207164136428577, 147, 7.865597788297617], 5.0183493148306395
[105, 5.821293621641685, 134, 24.207164136428577, 147, 7.865597788297617], 4.966415907994334
[105, 5.821293621641685, 134, 24.207164136428577, 147, 7.865597788297617], 5.045796210476804
[105, 5.821293621641685, 134, 24.207164136428577, 147, 7.865597788297617], 4.985508755420013
[105, 5.821293621641685, 134, 24.207164136428577, 147, 7.865597788297617], 5.010345223043722
[105, 5.821293621641685, 134, 24.207164136428577, 147, 7.865597788297617], 5.06318277964165
[105, 5.821293621641685, 134, 24.207164136428577, 147, 7.865597788297617], 5.048631596151509
[105, 5.821293621641685, 134, 24.207164136428577, 147, 7.865597788297617], 4.979253719644288
[105, 5.821293621641685, 134, 24.207164136428577, 147, 7.865597788297617], 5.065883362549616
[107, 8.06839891350268, 134, 30.15510769786857, 144, 17.68875140447491], 5.111560337681827
[107, 8.06839891350268, 134, 30.15510769786857, 144, 17.68875140447491], 5.011585559240326
[107, 8.06839891350268, 134, 30.15510769786857, 144, 17.68875140447491], 5.067447189238158
[107, 8.06839891350268, 134, 30.15510769786857, 144, 17.68875140447491], 5.111560337681827
run 3
[96, 8, 128, 32, 160, 8], 4.549609126113265
[96, 8, 128, 32, 160, 8], 4.549609126113265
[100, 8, 128, 32, 156, 8], 4.796041769936039
[99, 8, 131, 32, 154, 8], 4.872560584566208
[99, 8, 128, 30.675422270101382, 160, 11.51352340786574], 4.898849767607683
[100, 6.214063894614165, 122, 31.35053457014618, 151, 8], 4.90482553291142
[100, 6.214063894614165, 122, 31.35053457014618, 151, 8], 4.860126607456365
[100, 6.214063894614165, 122, 31.35053457014618, 151, 8], 4.853954988409196
[102, 4.95912305284307, 127, 33.13996712384468, 162, 16.937664758829087], 4.919755473556458
[97, 14.017179088415652, 131, 22.97382658531879, 152, 10.11991791243428], 5.07151618555617
[97, 14.017179088415652, 131, 22.97382658531879, 152, 10.11991791243428], 5.049574286090947
[99, 11.63449427856617, 128, 23.021216855439558, 149, 9.77613327894066], 5.075916940103971
[99, 11.63449427856617, 128, 23.021216855439558, 149, 9.77613327894066], 4.879604073380618
[99, 11.63449427856617, 128, 23.021216855439558, 149, 9.77613327894066], 5.015788080221382
[99, 11.63449427856617, 128, 23.021216855439558, 149, 9.77613327894066], 5.003023665970704
[99, 11.63449427856617, 128, 23.021216855439558, 149, 9.77613327894066], 5.037312941635182
[99, 11.63449427856617, 128, 23.021216855439558, 149, 9.77613327894066], 5.0594016307729754
[99, 11.63449427856617, 128, 23.021216855439558, 149, 9.77613327894066], 4.984544152305999
[100, 7.949733470894603, 135, 30.697824055878016, 146, 9.828330522351953], 5.13575828858316
[100, 7.949733470894603, 135, 30.697824055878016, 146, 9.828330522351953], 5.0525965891344224
[100, 7.949733470894603, 135, 30.697824055878016, 146, 9.828330522351953], 5.012008245644178
[100, 7.949733470894603, 135, 30.697824055878016, 146, 9.828330522351953], 5.0671825055225215
[100, 7.949733470894603, 135, 30.697824055878016, 146, 9.828330522351953], 4.990153403395326
[100, 7.949733470894603, 135, 30.697824055878016, 146, 9.828330522351953], 5.12309427443742
[100, 7.949733470894603, 135, 30.697824055878016, 146, 9.828330522351953], 5.124587756251538
[104, 7.940251105898611, 140, 28.420384927947577, 147, 9.828330522351953], 5.139775446897493
[104, 7.940251105898611, 140, 28.420384927947577, 147, 9.828330522351953], 5.139775446897493
run 4
[96, 8, 128, 32, 160, 8], 4.549609126113265
[96, 8, 128, 32, 160, 8], 4.549609126113265
[96, 8, 128, 28.62420205827341, 160, 11.391870827557854], 4.840685973678051
[100, 8, 133, 32, 154, 8], 4.928983853324382
[100, 8, 133, 32, 154, 8], 4.914511064424204
[100, 8, 133, 32, 154, 8], 4.842753842836707
[100, 8, 133, 32, 154, 8], 4.890866025636449
[100, 8, 133, 32, 154, 8], 4.912393521161941
[104, 6.758765236494811, 132, 28.755003265251993, 156, 8.764005946139237], 5.001996271072761
[104, 6.758765236494811, 132, 28.755003265251993, 156, 9.935237135325195], 5.0587204606629745
[105, 5.56856366807658, 136, 32, 150, 8], 5.060830006986976
[105, 5.56856366807658, 136, 32, 150, 8], 4.957041972524825
[105, 5.56856366807658, 136, 32, 150, 8], 5.014153593523692
[105, 5.56856366807658, 136, 32, 150, 8], 5.040008772849627
[105, 5.56856366807658, 136, 32, 150, 8], 5.034180278347018
[106, 7.654030836130584, 128, 16.154532781573284, 153, 10.52782086924322], 5.108906867366313
[106, 7.654030836130584, 128, 16.154532781573284, 153, 10.52782086924322], 5.031008331923735
[101, 5.17050705108568, 111, 31.83784742263763, 147, 10.726860798741434], 5.110306804211142
[101, 5.17050705108568, 111, 31.83784742263763, 147, 10.726860798741434], 5.055305313806638
[101, 5.17050705108568, 111, 31.83784742263763, 147, 10.726860798741434], 5.04719287241669
[101, 5.17050705108568, 111, 31.83784742263763, 147, 10.726860798741434], 4.996566703045729
[101, 5.17050705108568, 111, 31.83784742263763, 147, 10.726860798741434], 5.030661464828251
[101, 5.17050705108568, 111, 31.83784742263763, 147, 10.726860798741434], 5.0178196873391485
[103, 11.623648068186498, 128, 17.864640136348577, 155, 10.07490305910991], 5.121592516453085
[102, 5.733837045096788, 145, 34.36784217102643, 145, 7.295577255353314], 5.138407018041082
[102, 5.733837045096788, 145, 34.36784217102643, 145, 7.295577255353314], 5.102213029019167
[102, 5.733837045096788, 145, 34.36784217102643, 145, 7.295577255353314], 5.138407018041082
