# num of test, generation, neighborhood size
4 25 10
# image width height
512 512
# image entropy
5.752871548330346
# avg. time
29.614190757274628s
# best fitness in each run
4.259975985826662 4.337667189173518 4.286748470879395 4.395841766101393 
# avg. std. deviation of best fitness
4.320058352995241 0.05189565469459503
# best solution
[104, 13.662942333878979, 126, 37.63118064973359, 155, 29.666586579261956]
# enhanced image entropy
5.459684134318638
original entropy, quality : 5.752871548330346, 4.781397755772522
he enhanced entropy, quality : 5.405163311138526, 4.687353199245509
# history
run 1
[96, 8, 128, 32, 160, 8], 3.896012757590519
[96, 8, 128, 32, 160, 8], 3.896012757590519
[98, 8, 129, 32, 158, 8], 4.000653632773729
[96, 8.830406486323874, 128, 33.398762989280364, 160, 8], 4.085284866212882
[97, 10.458258427242345, 130, 35.7526374915827, 156, 9.663084464162122], 4.165524464009062
[97, 10.458258427242345, 130, 35.7526374915827, 156, 9.663084464162122], 4.15845177891366
[96, 9.87413394353854, 130, 34.228645660673116, 154, 9.663084464162122], 4.181853222595611
[96, 8.512577938349414, 130, 34.228645660673116, 154, 9.664366229339796], 4.189683576344594
[96, 8.512577938349414, 130, 34.228645660673116, 154, 9.664366229339796], 4.147060718065085
[99, 6.937026212699823, 128, 38.16568993015115, 160, 8.42715482510167], 4.204789697282156
[99, 6.937026212699823, 128, 38.16568993015115, 160, 8.42715482510167], 4.19232528997555
[99, 6.937026212699823, 128, 38.16568993015115, 160, 8.42715482510167], 4.143455821634747
[102, 6.6175838220109435, 129, 35.599557533791724, 150, 9.967341350194289], 4.259975985826662
[102, 6.6175838220109435, 129, 35.599557533791724, 150, 9.967341350194289], 4.168379990337011
[102, 6.6175838220109435, 129, 35.599557533791724, 150, 9.967341350194289], 4.251569961355056
[102, 6.6175838220109435, 129, 35.599557533791724, 150, 9.967341350194289], 4.200078162243455
[102, 6.6175838220109435, 129, 35.599557533791724, 150, 9.967341350194289], 4.227453927426828
[102, 6.6175838220109435, 129, 35.599557533791724, 150, 9.967341350194289], 4.039496245871001
[102, 6.6175838220109435, 129, 35.599557533791724, 150, 9.967341350194289], 4.231605412376621
[102, 6.6175838220109435, 129, 35.599557533791724, 150, 9.967341350194289], 4.187417361500909
[102, 6.6175838220109435, 129, 35.599557533791724, 150, 9.967341350194289], 3.9950365660998077
[102, 6.6175838220109435, 129, 35.599557533791724, 150, 9.967341350194289], 4.142602361131214
[102, 6.6175838220109435, 129, 35.599557533791724, 150, 9.967341350194289], 4.083583737558309
[102, 6.6175838220109435, 129, 35.599557533791724, 150, 9.967341350194289], 4.080379830976805
[102, 6.6175838220109435, 129, 35.599557533791724, 150, 9.967341350194289], 4.093230887903464
[102, 6.6175838220109435, 129, 35.599557533791724, 150, 9.967341350194289], 4.0892710396844505
[102, 6.6175838220109435, 129, 35.599557533791724, 150, 9.967341350194289], 4.259975985826662
run 2
[96, 8, 128, 32, 160, 8], 3.896012757590519
[96, 8, 128, 32, 160, 8], 3.896012757590519
[96, 8, 128, 31.834407121525903, 160, 8.14840416936471], 3.995647338132061
[96, 8.707057571148257, 128, 36.087106525821596, 159, 8], 4.10070254999748
[96, 8.707057571148257, 128, 36.087106525821596, 156, 8], 4.125158448422223
[96, 8.707057571148257, 128, 36.087106525821596, 156, 8], 4.049244382705285
[96, 8.707057571148257, 128, 36.087106525821596, 156, 8], 4.091567128124511
[96, 7.067062351648394, 128, 34.86107827328217, 154, 9.087804849777015], 4.186498726991382
[96, 7.067062351648394, 128, 34.86107827328217, 154, 9.087804849777015], 4.098242616468824
[97, 8.909370480057033, 128, 34.86107827328217, 154, 10.191965423958166], 4.20036262698496
[95, 6.42846222390716, 133, 36.99084195365627, 157, 14.199887128601425], 4.233182296743275
[96, 8, 130, 36.99084195365627, 153, 11.576001205011764], 4.235239225948444
[96, 8, 130, 36.99084195365627, 153, 11.576001205011764], 4.135278444642912
[96, 8, 130, 36.99084195365627, 153, 11.576001205011764], 4.149384163987108
[96, 8, 130, 36.99084195365627, 153, 11.576001205011764], 4.1148412138457235
[96, 8, 130, 36.99084195365627, 153, 11.576001205011764], 4.118735154965748
[96, 8, 130, 36.99084195365627, 153, 11.576001205011764], 4.230455917768043
[93, 11.91875581123652, 136, 39.67492339177698, 156, 12.059718889578033], 4.2564412948435635
[101, 4.311058712370805, 124, 40.287341758608356, 161, 14.69811788498174], 4.337667189173518
[101, 4.311058712370805, 124, 40.287341758608356, 161, 14.69811788498174], 4.307103537384251
[101, 4.311058712370805, 124, 40.287341758608356, 161, 14.69811788498174], 4.279274119429995
[101, 4.311058712370805, 124, 40.287341758608356, 161, 14.69811788498174], 4.316388868479126
[101, 4.311058712370805, 124, 40.287341758608356, 161, 14.69811788498174], 4.249034097437273
[101, 4.311058712370805, 124, 40.287341758608356, 161, 14.69811788498174], 4.228586595841636
[101, 4.311058712370805, 124, 40.287341758608356, 161, 14.69811788498174], 4.309815140824705
[101, 4.311058712370805, 124, 40.287341758608356, 161, 14.69811788498174], 4.309353944987732
[101, 4.311058712370805, 124, 40.287341758608356, 161, 14.69811788498174], 4.337667189173518
run 3
[96, 8, 128, 32, 160, 8], 3.896012757590519
[96, 8, 128, 32, 160, 8], 3.896012757590519
[96, 8, 128, 32.984429834054694, 160, 11.471893134774234], 4.078611931605436
[96, 8, 128, 32.984429834054694, 160, 11.471893134774234], 4.006550650754907
[96, 8, 125, 35.93099742847222, 160, 8], 4.122763179265099
[96, 8, 125, 35.93099742847222, 160, 8], 4.114367997406055
[96, 8, 125, 35.93099742847222, 160, 8], 4.040090282426915
[96, 9.08892966782896, 125, 36.62478588240883, 160, 9.916866328545956], 4.140294481573457
[99, 8, 124, 36.62478588240883, 165, 9.300665326064687], 4.1743801098455755
[99, 8, 124, 36.62478588240883, 165, 9.300665326064687], 4.0920369625793525
[99, 8, 124, 36.62478588240883, 165, 9.300665326064687], 4.133794586761109
[96, 9.367751677097173, 132, 33.877192250320135, 170, 23.87124548978477], 4.286748470879395
[96, 9.367751677097173, 132, 33.877192250320135, 170, 23.87124548978477], 4.087981721279433
[96, 9.367751677097173, 132, 33.877192250320135, 170, 23.87124548978477], 4.087981721279433
[96, 9.367751677097173, 132, 33.877192250320135, 170, 23.87124548978477], 4.236045025279289
[96, 9.367751677097173, 132, 33.877192250320135, 170, 23.87124548978477], 4.128715179251425
[96, 9.367751677097173, 132, 33.877192250320135, 170, 23.87124548978477], 4.163314077262667
[96, 9.367751677097173, 132, 33.877192250320135, 170, 23.87124548978477], 4.1627900609085655
[96, 9.367751677097173, 132, 33.877192250320135, 170, 23.87124548978477], 4.077201320672568
[96, 9.367751677097173, 132, 33.877192250320135, 170, 23.87124548978477], 4.0828543454258455
[96, 9.367751677097173, 132, 33.877192250320135, 170, 23.87124548978477], 4.011827727501952
[96, 9.367751677097173, 132, 33.877192250320135, 170, 23.87124548978477], 4.108646967687197
[96, 9.367751677097173, 132, 33.877192250320135, 170, 23.87124548978477], 4.14498215985398
[96, 9.367751677097173, 132, 33.877192250320135, 170, 23.87124548978477], 4.2738260163028965
[96, 9.367751677097173, 132, 33.877192250320135, 170, 23.87124548978477], 4.251590735572661
[96, 9.367751677097173, 132, 33.877192250320135, 170, 23.87124548978477], 4.209772721413425
[96, 9.367751677097173, 132, 33.877192250320135, 170, 23.87124548978477], 4.286748470879395
run 4
[96, 8, 128, 32, 160, 8], 3.896012757590519
[96, 8, 128, 32, 160, 8], 3.896012757590519
[96, 8, 128, 32.56804259987443, 160, 10.22613903761113], 4.0386883401448115
[96, 8, 128, 35.84438206194252, 160, 11.338368339304013], 4.155845567198144
[96, 8, 128, 35.84438206194252, 160, 11.338368339304013], 4.14105220361251
[96, 8, 128, 35.84438206194252, 160, 11.338368339304013], 4.147824363913635
[96, 8, 128, 35.84438206194252, 160, 11.338368339304013], 4.082511578155563
[96, 8, 128, 35.84438206194252, 160, 11.338368339304013], 4.089401629684645
[96, 8, 128, 35.84438206194252, 160, 11.338368339304013], 4.11223119004913
[96, 8, 128, 35.84438206194252, 160, 11.338368339304013], 4.14117934484795
[96, 7.4473953130137875, 129, 37.23369595698979, 163, 14.962640017291607], 4.264735980668277
[96, 7.4473953130137875, 129, 37.23369595698979, 163, 14.962640017291607], 4.251196582757306
[96, 7.4473953130137875, 129, 37.23369595698979, 163, 14.962640017291607], 4.2520668813929055
[96, 7.4473953130137875, 129, 37.23369595698979, 163, 14.962640017291607], 4.2520668813929055
[96, 7.4473953130137875, 129, 37.23369595698979, 163, 14.962640017291607], 4.159839703252678
[96, 7.4473953130137875, 129, 37.23369595698979, 163, 14.962640017291607], 4.127702192829878
[96, 7.4473953130137875, 129, 37.23369595698979, 163, 14.962640017291607], 4.2468987234197275
[96, 7.4473953130137875, 129, 37.23369595698979, 163, 14.962640017291607], 4.229160943660026
[96, 7.4473953130137875, 129, 37.23369595698979, 163, 14.962640017291607], 4.200522252625636
[96, 7.4473953130137875, 129, 37.23369595698979, 163, 14.962640017291607], 4.14355235513614
[96, 7.4473953130137875, 129, 37.23369595698979, 163, 14.962640017291607], 4.254194512182092
[96, 7.4473953130137875, 129, 37.23369595698979, 163, 14.962640017291607], 4.111043390187095
[97, 6.063457162403938, 134, 38.13473755945626, 150, 11.640556949971733], 4.324901812280949
[102, 8.659295508333049, 134, 38.13473755945626, 154, 21.871590542398536], 4.378328887285799
[95, 12.567119112188204, 134, 38.13473755945626, 154, 21.871590542398536], 4.3789135196606415
[104, 13.662942333878979, 126, 37.63118064973359, 155, 29.666586579261956], 4.395841766101393
[104, 13.662942333878979, 126, 37.63118064973359, 155, 29.666586579261956], 4.395841766101393
