# num of test, generation, neighborhood size
4 25 10
# image width height
512 512
# image entropy
7.445040490042559
# avg. time
45.751200914382935s
# best fitness in each run
8.848430445947386 8.656848980288224 8.736067162748155 8.766475001767798 
# avg. std. deviation of best fitness
8.75195539768789 0.06858556786855582
# best solution
[101, 8.868484088776006, 145, 38.57938380728689, 164, 7.894328760700781]
# enhanced image entropy
6.7020258822473195
original entropy, quality : 7.445040490042559, 9.06120310715222
he enhanced entropy, quality : 7.340016097329004, 9.148708664488735
# history
run 1
[96, 8, 128, 32, 160, 8], 7.233267142926128
[96, 8, 128, 32, 160, 8], 7.233267142926128
[96, 9.78263358213547, 128, 35.97922234411327, 160, 8], 7.966084595833234
[96, 9.78263358213547, 128, 35.97922234411327, 160, 8], 7.966001865181217
[100, 6.476017756002882, 133, 35.97922234411327, 160, 8.160986476242881], 8.30107666359744
[100, 8.381827613327761, 133, 38.06707723631695, 157, 8], 8.451544248183392
[100, 8.381827613327761, 133, 38.06707723631695, 157, 14.169464476146953], 8.46995339868835
[97, 10.48376217586442, 137, 38.06707723631695, 161, 8], 8.619326598728787
[97, 10.48376217586442, 137, 38.06707723631695, 161, 8], 8.612884835928057
[97, 12.965840312463932, 137, 38.06707723631695, 165, 10.942329880611156], 8.629608053415335
[97, 12.965840312463932, 137, 38.06707723631695, 165, 10.942329880611156], 8.50872631135153
[110, 8.180084706072225, 145, 33.76430042716722, 168, 9.923123865950904], 8.641087317843741
[98, 8.642006887608318, 145, 35.70471194394153, 168, 9.923123865950904], 8.778976064944612
[98, 8.642006887608318, 145, 35.70471194394153, 168, 9.923123865950904], 8.77455366394836
[101, 8.868484088776006, 145, 38.57938380728689, 164, 7.894328760700781], 8.848430445947386
[101, 8.868484088776006, 145, 38.57938380728689, 164, 7.894328760700781], 8.839887844546547
[101, 8.868484088776006, 145, 38.57938380728689, 164, 7.894328760700781], 8.79122614087679
[101, 8.868484088776006, 145, 38.57938380728689, 164, 7.894328760700781], 8.730349011487073
[101, 8.868484088776006, 145, 38.57938380728689, 164, 7.894328760700781], 8.697473676052878
[101, 8.868484088776006, 145, 38.57938380728689, 164, 7.894328760700781], 8.612182279379168
[101, 8.868484088776006, 145, 38.57938380728689, 164, 7.894328760700781], 8.642029203458465
[101, 8.868484088776006, 145, 38.57938380728689, 164, 7.894328760700781], 8.704644306802825
[101, 8.868484088776006, 145, 38.57938380728689, 164, 7.894328760700781], 8.773393026488996
[101, 8.868484088776006, 145, 38.57938380728689, 164, 7.894328760700781], 8.74967758642849
[101, 8.868484088776006, 145, 38.57938380728689, 164, 7.894328760700781], 8.7256574161599
[101, 8.868484088776006, 145, 38.57938380728689, 164, 7.894328760700781], 8.7970152236753
[101, 8.868484088776006, 145, 38.57938380728689, 164, 7.894328760700781], 8.848430445947386
run 2
[96, 8, 128, 32, 160, 8], 7.233267142926128
[96, 8, 128, 32, 160, 8], 7.233267142926128
[97, 8, 130, 32, 160, 8], 7.441202407161974
[96, 8, 130, 34.00557711016627, 160, 8], 7.859707760219218
[96, 8, 130, 34.00557711016627, 160, 8], 7.849239105789938
[96, 10.888071824450623, 129, 36.44956995689974, 163, 11.593821290151883], 8.115717532996577
[96, 10.888071824450623, 129, 36.44956995689974, 163, 11.593821290151883], 8.112433210480985
[96, 10.888071824450623, 129, 36.44956995689974, 163, 11.593821290151883], 8.111361039701519
[96, 9.940635294099922, 128, 40.71827745423303, 160, 6.0513893751583], 8.391388270836156
[96, 9.940635294099922, 128, 40.71827745423303, 160, 6.0513893751583], 8.391388270836156
[98, 9.940635294099922, 128, 40.71827745423303, 162, 6.0513893751583], 8.403208104780198
[98, 9.940635294099922, 128, 40.71827745423303, 162, 6.0513893751583], 8.398945324957749
[98, 9.940635294099922, 128, 40.71827745423303, 162, 6.0513893751583], 8.4020034359482
[96, 14.262029535466821, 128, 40.97585094172833, 162, 7.408802960150413], 8.449923577273045
[94, 14.21408315873464, 128, 40.97585094172833, 162, 7.408802960150413], 8.453406437494131
[105, 9.099151668686893, 128, 42.42153891200373, 155, 7.663946205549315], 8.501831736522727
[105, 9.099151668686893, 128, 42.42153891200373, 155, 7.663946205549315], 8.477363864242323
[105, 9.099151668686893, 128, 42.42153891200373, 155, 7.663946205549315], 8.482263540322132
[110, 11.99311697097803, 140, 34.813403007684784, 159, 11.98384883676381], 8.515282571103432
[110, 11.99311697097803, 140, 34.813403007684784, 159, 11.98384883676381], 8.492669376814778
[110, 11.99311697097803, 140, 34.813403007684784, 159, 11.98384883676381], 8.467059619618636
[99, 3.7778529141904222, 142, 34.535911560221244, 146, 14.7584378272504], 8.576338090491838
[99, 3.7778529141904222, 142, 34.535911560221244, 146, 14.7584378272504], 8.559096152278675
[105, 15.76934851419568, 123, 48.39372894524717, 156, 26.47549778157221], 8.65561728080243
[105, 15.76934851419568, 121, 48.39372894524717, 158, 26.47549778157221], 8.656848980288224
[105, 15.76934851419568, 121, 48.39372894524717, 158, 26.47549778157221], 8.589273418370201
[105, 15.76934851419568, 121, 48.39372894524717, 158, 26.47549778157221], 8.656848980288224
run 3
[96, 8, 128, 32, 160, 8], 7.233267142926128
[96, 8, 128, 32, 160, 8], 7.233267142926128
[96, 7.453378352375138, 128, 34.71354199279655, 160, 8], 7.835124400187791
[96, 4.4250153191700985, 128, 37.17063271292844, 160, 9.64006716938012], 8.160736521793151
[96, 4.4250153191700985, 128, 37.17063271292844, 160, 9.64006716938012], 8.086647180332386
[96, 4.4250153191700985, 128, 37.17063271292844, 160, 9.64006716938012], 8.01249663620319
[93, 10.373942824162384, 134, 36.31840385197475, 158, 7.338170251469886], 8.361864770300052
[93, 10.373942824162384, 134, 36.31840385197475, 157, 9.502968734600199], 8.369479524307454
[89, 10.373942824162384, 138, 36.31840385197475, 160, 7.885979894835695], 8.544340534676133
[100, 8, 139, 36.31840385197475, 152, 9.833329690303898], 8.580863091494011
[100, 8, 144, 36.31840385197475, 152, 9.833329690303898], 8.736067162748155
[100, 8, 144, 36.31840385197475, 152, 9.833329690303898], 8.662403153142797
[100, 8, 144, 36.31840385197475, 152, 9.833329690303898], 8.68751454133156
[100, 8, 144, 36.31840385197475, 152, 9.833329690303898], 8.596573450451666
[100, 8, 144, 36.31840385197475, 152, 9.833329690303898], 8.608884878969697
[100, 8, 144, 36.31840385197475, 152, 9.833329690303898], 8.521291978141317
[100, 8, 144, 36.31840385197475, 152, 9.833329690303898], 8.437991301216945
[100, 8, 144, 36.31840385197475, 152, 9.833329690303898], 8.548508380031599
[100, 8, 144, 36.31840385197475, 152, 9.833329690303898], 8.510878123459717
[100, 8, 144, 36.31840385197475, 152, 9.833329690303898], 8.590172645241339
[100, 8, 144, 36.31840385197475, 152, 9.833329690303898], 8.613671186871425
[100, 8, 144, 36.31840385197475, 152, 9.833329690303898], 8.348396529239785
[100, 8, 144, 36.31840385197475, 152, 9.833329690303898], 8.323803385547151
[100, 8, 144, 36.31840385197475, 152, 9.833329690303898], 8.454117053040573
[100, 8, 144, 36.31840385197475, 152, 9.833329690303898], 8.475427078202983
[100, 8, 144, 36.31840385197475, 152, 9.833329690303898], 8.612370975343536
[100, 8, 144, 36.31840385197475, 152, 9.833329690303898], 8.736067162748155
run 4
[96, 8, 128, 32, 160, 8], 7.233267142926128
[96, 8, 128, 32, 160, 8], 7.233267142926128
[96, 8, 133, 32, 160, 8], 7.708319660321347
[96, 7.904942739123497, 137, 32, 160, 8], 8.046612708932193
[96, 7.904942739123497, 137, 32, 160, 8], 8.018681367127902
[93, 14.470903035594667, 137, 34.48375440373328, 164, 6.547142133222665], 8.34059240372136
[93, 14.470903035594667, 137, 34.48375440373328, 164, 6.547142133222665], 8.27953176009386
[93, 14.470903035594667, 137, 34.48375440373328, 164, 6.547142133222665], 8.178441969306432
[100, 5.876915526598557, 132, 37.97910262411941, 166, 6.770712906549832], 8.392421780320547
[100, 5.876915526598557, 132, 39.47261113556542, 166, 6.770712906549832], 8.494133630635243
[96, 8.263303848403895, 132, 39.47261113556542, 161, 6.725391213470495], 8.507257518506531
[96, 8.263303848403895, 132, 39.47261113556542, 161, 6.725391213470495], 8.486835893007438
[97, 6.079445093468488, 132, 40.83906639542718, 159, 9.831269933640497], 8.612324164260032
[100, 5.8373138321983635, 132, 40.83906639542718, 162, 11.472436599613301], 8.61846407889945
[100, 5.8373138321983635, 132, 40.83906639542718, 167, 11.472436599613301], 8.626589691322847
[101, 5.8373138321983635, 134, 40.83906639542718, 166, 11.472436599613301], 8.676245046243677
[101, 5.8373138321983635, 134, 40.83906639542718, 166, 11.472436599613301], 8.592738629379754
[101, 5.8373138321983635, 134, 40.83906639542718, 166, 11.472436599613301], 8.617075350878455
[101, 5.8373138321983635, 134, 40.83906639542718, 166, 11.472436599613301], 8.59924688517145
[101, 5.8373138321983635, 134, 40.83906639542718, 166, 11.472436599613301], 8.596596201729142
[101, 5.8373138321983635, 134, 40.83906639542718, 166, 11.472436599613301], 8.579564525793659
[101, 5.8373138321983635, 134, 40.83906639542718, 166, 11.472436599613301], 8.63477827039543
[101, 5.8373138321983635, 134, 40.83906639542718, 166, 11.472436599613301], 8.634978956083389
[96, 18.161651051108453, 144, 36.25613896629667, 167, 8.406406345820596], 8.74690164107256
[96, 15.58207552884888, 144, 36.25613896629667, 158, 12.572428618893085], 8.766475001767798
[96, 15.58207552884888, 144, 36.25613896629667, 158, 12.572428618893085], 8.722639189436755
[96, 15.58207552884888, 144, 36.25613896629667, 158, 12.572428618893085], 8.766475001767798
