# num of test, generation, neighborhood size
4 25 10
# image width height
512 512
# image entropy
7.445061352834159
# avg. time
41.75992047786713s
# best fitness in each run
8.443055438809505 8.526252803320117 8.413254190653928 8.438509342965132 
# avg. std. deviation of best fitness
8.455267943937171 0.04252646738971848
# best solution
[97, 10.952391057771328, 126, 36.84020421162509, 153, 15.657976226370717]
# enhanced image entropy
7.042696084470417
original entropy, quality : 7.445061352834159, 9.062357724123629
he enhanced entropy, quality : 7.340066852464042, 9.14937533869416
# history
run 1
[96, 8, 128, 32, 160, 8], 7.877624266399772
[96, 8, 128, 32, 160, 8], 7.877624266399772
[96, 8, 128, 35.22354499139522, 160, 9.577059913869135], 8.161656987547675
[97, 9.817115868109964, 126, 36.27174604928643, 160, 10.63055347627834], 8.300661845866923
[97, 9.817115868109964, 126, 36.27174604928643, 160, 10.63055347627834], 8.21831744116418
[97, 9.817115868109964, 126, 36.27174604928643, 160, 10.63055347627834], 8.235264315968513
[97, 9.817115868109964, 126, 36.27174604928643, 160, 10.63055347627834], 8.176630020562635
[99, 11.26933234754484, 128, 32.94177647496429, 159, 17.797095739510013], 8.361760898830278
[99, 11.26933234754484, 128, 32.94177647496429, 159, 17.797095739510013], 8.239593874026333
[99, 11.26933234754484, 128, 32.94177647496429, 159, 17.797095739510013], 8.293968246034655
[98, 5.696384000520377, 123, 33.914165401879906, 151, 16.347642411869984], 8.409878425423534
[98, 5.696384000520377, 123, 33.914165401879906, 151, 16.347642411869984], 8.373916349593546
[98, 5.696384000520377, 123, 33.914165401879906, 151, 16.347642411869984], 8.16535046045642
[98, 5.696384000520377, 123, 33.914165401879906, 151, 16.347642411869984], 8.255170803848245
[98, 5.696384000520377, 123, 33.914165401879906, 151, 16.347642411869984], 8.294482691741552
[98, 5.696384000520377, 123, 33.914165401879906, 151, 16.347642411869984], 8.320640936318167
[98, 5.696384000520377, 123, 33.914165401879906, 151, 16.347642411869984], 8.302312131971403
[98, 5.696384000520377, 123, 33.914165401879906, 151, 16.347642411869984], 8.34909773837615
[88, 12.823041180630153, 135, 38.319594416257544, 148, 9.31265353352522], 8.430419456715903
[88, 12.823041180630153, 135, 38.319594416257544, 148, 9.31265353352522], 8.396152755524325
[88, 12.823041180630153, 135, 38.319594416257544, 148, 9.31265353352522], 8.397336078263061
[88, 12.823041180630153, 135, 38.319594416257544, 148, 9.31265353352522], 8.368448894030118
[88, 12.823041180630153, 135, 38.319594416257544, 148, 9.31265353352522], 8.37391682531676
[105, 7.962232227614986, 127, 37.15765389538079, 160, 17.988591152346412], 8.443055438809505
[105, 7.962232227614986, 127, 37.15765389538079, 160, 17.988591152346412], 8.330106400130365
[105, 7.962232227614986, 127, 37.15765389538079, 160, 17.988591152346412], 8.380587014275307
[105, 7.962232227614986, 127, 37.15765389538079, 160, 17.988591152346412], 8.443055438809505
run 2
[96, 8, 128, 32, 160, 8], 7.877624266399772
[96, 8, 128, 32, 160, 8], 7.877624266399772
[96, 12.278751648553321, 128, 34.09094969586409, 160, 9.36558854533841], 8.166143627366411
[96, 12.278751648553321, 128, 34.09094969586409, 160, 9.36558854533841], 8.09192557065523
[96, 12.278751648553321, 128, 34.09094969586409, 160, 9.36558854533841], 8.125161125038629
[96, 12.278751648553321, 128, 34.09094969586409, 160, 9.36558854533841], 8.142111024960762
[96, 12.278751648553321, 128, 34.09094969586409, 160, 9.36558854533841], 8.101610415440753
[93, 9.98454061846691, 128, 33.96248180761771, 159, 13.165582746568184], 8.268643252198958
[95, 8, 128, 35.56457566671294, 159, 13.165582746568184], 8.283047056427552
[93, 7.639782007777655, 123, 32.40953878561887, 153, 15.657976226370717], 8.310487730487518
[97, 10.952391057771328, 126, 36.84020421162509, 153, 15.657976226370717], 8.526252803320117
[97, 10.952391057771328, 126, 36.84020421162509, 153, 15.657976226370717], 8.185644771596888
[97, 10.952391057771328, 126, 36.84020421162509, 153, 15.657976226370717], 8.145978067990574
[97, 10.952391057771328, 126, 36.84020421162509, 153, 15.657976226370717], 8.413688926181702
[97, 10.952391057771328, 126, 36.84020421162509, 153, 15.657976226370717], 8.487801017213728
[97, 10.952391057771328, 126, 36.84020421162509, 153, 15.657976226370717], 8.458561730205611
[97, 10.952391057771328, 126, 36.84020421162509, 153, 15.657976226370717], 8.388042101024114
[97, 10.952391057771328, 126, 36.84020421162509, 153, 15.657976226370717], 8.52163199483268
[97, 10.952391057771328, 126, 36.84020421162509, 153, 15.657976226370717], 8.391600743378707
[97, 10.952391057771328, 126, 36.84020421162509, 153, 15.657976226370717], 8.42020940247645
[97, 10.952391057771328, 126, 36.84020421162509, 153, 15.657976226370717], 8.412654127486105
[97, 10.952391057771328, 126, 36.84020421162509, 153, 15.657976226370717], 8.28255537713977
[97, 10.952391057771328, 126, 36.84020421162509, 153, 15.657976226370717], 8.288706690433653
[97, 10.952391057771328, 126, 36.84020421162509, 153, 15.657976226370717], 8.313810598676003
[97, 10.952391057771328, 126, 36.84020421162509, 153, 15.657976226370717], 8.316030921329926
[97, 10.952391057771328, 126, 36.84020421162509, 153, 15.657976226370717], 8.344829513440159
[97, 10.952391057771328, 126, 36.84020421162509, 153, 15.657976226370717], 8.526252803320117
run 3
[96, 8, 128, 32, 160, 8], 7.877624266399772
[96, 8, 128, 32, 160, 8], 7.877624266399772
[96, 10.173685337622988, 128, 33.84779664470964, 160, 11.985090936952428], 8.248650829945834
[96, 10.173685337622988, 128, 33.84779664470964, 160, 11.985090936952428], 8.121561782144067
[96, 10.173685337622988, 128, 33.84779664470964, 160, 11.985090936952428], 8.052149571398397
[96, 10.173685337622988, 128, 33.84779664470964, 160, 11.985090936952428], 8.13320958338917
[96, 10.173685337622988, 128, 33.84779664470964, 160, 11.985090936952428], 8.162730356244513
[96, 8.194039913360037, 127, 38.37346833610247, 160, 10.050653328095867], 8.26652304624974
[97, 10.561130888678575, 127, 39.284493958345614, 160, 10.050653328095867], 8.307490653160224
[97, 10.561130888678575, 127, 36.63315341739802, 160, 10.914119076742429], 8.318625966198272
[97, 10.561130888678575, 127, 36.63315341739802, 160, 10.914119076742429], 8.30238188007953
[99, 11.36779467257099, 120, 35.178355059505904, 159, 12.216999551828032], 8.320720091185112
[99, 11.36779467257099, 120, 35.178355059505904, 159, 12.216999551828032], 8.299797290486374
[99, 11.36779467257099, 131, 36.44728198190415, 157, 12.216999551828032], 8.364191263015444
[100, 11.36779467257099, 131, 36.44728198190415, 153, 12.216999551828032], 8.406750517580537
[100, 11.36779467257099, 131, 36.44728198190415, 153, 12.216999551828032], 8.352352721782944
[103, 10.520153096408956, 131, 36.44728198190415, 165, 17.662895881571096], 8.408085090936028
[103, 10.520153096408956, 131, 36.44728198190415, 165, 17.662895881571096], 8.297565022641042
[103, 10.520153096408956, 131, 36.44728198190415, 165, 17.662895881571096], 8.29540831922367
[103, 10.520153096408956, 131, 36.44728198190415, 165, 17.662895881571096], 8.325006410434458
[104, 10.81899298534662, 129, 36.361112272490296, 162, 16.19502764618638], 8.413254190653928
[104, 10.81899298534662, 129, 36.361112272490296, 162, 16.19502764618638], 8.23463713305195
[104, 10.81899298534662, 129, 36.361112272490296, 162, 16.19502764618638], 8.283104821159617
[104, 10.81899298534662, 129, 36.361112272490296, 162, 16.19502764618638], 8.306275530792147
[104, 10.81899298534662, 129, 36.361112272490296, 162, 16.19502764618638], 8.358360157193303
[104, 10.81899298534662, 129, 36.361112272490296, 162, 16.19502764618638], 8.335992461449882
[104, 10.81899298534662, 129, 36.361112272490296, 162, 16.19502764618638], 8.413254190653928
run 4
[96, 8, 128, 32, 160, 8], 7.877624266399772
[96, 8, 128, 32, 160, 8], 7.877624266399772
[96, 8, 128, 32, 160, 12.364536398887637], 8.122168255443059
[96, 8, 128, 35.48342551845257, 160, 9.416238023303649], 8.169644026269372
[96, 8, 128, 35.48342551845257, 157, 9.416238023303649], 8.224419232860042
[96, 8, 128, 35.48342551845257, 157, 9.416238023303649], 8.203284261994195
[96, 8, 128, 35.48342551845257, 157, 9.416238023303649], 8.2079132827357
[96, 8, 128, 35.48342551845257, 157, 9.416238023303649], 8.200775560626813
[96, 8, 128, 35.48342551845257, 157, 9.416238023303649], 8.15546083276488
[93, 6.989255183810307, 124, 33.20572655155618, 159, 15.938924132573778], 8.259108377283692
[93, 6.989255183810307, 124, 33.20572655155618, 159, 15.938924132573778], 8.143802234166335
[102, 8.868285059866027, 120, 35.113003386396244, 159, 16.07834236878127], 8.404517308317432
[101, 8.868285059866027, 120, 35.113003386396244, 161, 16.07834236878127], 8.41493729178665
[101, 8.868285059866027, 120, 35.113003386396244, 161, 16.07834236878127], 8.312501065597289
[101, 8.868285059866027, 120, 35.113003386396244, 161, 16.07834236878127], 8.32454609462927
[101, 8.868285059866027, 120, 35.113003386396244, 161, 16.07834236878127], 8.258044007400253
[101, 8.868285059866027, 120, 35.113003386396244, 161, 16.07834236878127], 8.293357459106375
[101, 8.868285059866027, 120, 35.113003386396244, 161, 16.07834236878127], 8.398615218892505
[98, 6.019327373811583, 127, 36.64499400404046, 140, 11.28320538030044], 8.43792510969905
[98, 6.019327373811583, 128, 36.64499400404046, 140, 11.28320538030044], 8.438509342965132
[98, 6.019327373811583, 128, 36.64499400404046, 140, 11.28320538030044], 8.304493964274549
[98, 6.019327373811583, 128, 36.64499400404046, 140, 11.28320538030044], 8.39058138297451
[98, 6.019327373811583, 128, 36.64499400404046, 140, 11.28320538030044], 8.215697423172225
[98, 6.019327373811583, 128, 36.64499400404046, 140, 11.28320538030044], 8.227458635391221
[98, 6.019327373811583, 128, 36.64499400404046, 140, 11.28320538030044], 8.272877348765546
[98, 6.019327373811583, 128, 36.64499400404046, 140, 11.28320538030044], 8.2239436540451
[98, 6.019327373811583, 128, 36.64499400404046, 140, 11.28320538030044], 8.438509342965132
